<?xml version="1.0" encoding="UTF-8" standalone="no"?>
<!-- Created with Inkscape (http://www.inkscape.org/) -->

<svg
   xmlns:dc="http://purl.org/dc/elements/1.1/"
   xmlns:cc="http://creativecommons.org/ns#"
   xmlns:rdf="http://www.w3.org/1999/02/22-rdf-syntax-ns#"
   xmlns:svg="http://www.w3.org/2000/svg"
   xmlns="http://www.w3.org/2000/svg"
   xmlns:xlink="http://www.w3.org/1999/xlink"
   xmlns:sodipodi="http://sodipodi.sourceforge.net/DTD/sodipodi-0.dtd"
   xmlns:inkscape="http://www.inkscape.org/namespaces/inkscape"
   width="744.09448"
   height="1052.3622"
   id="svg4700"
   version="1.1"
   inkscape:version="0.91 r13725"
   viewBox="0 0 744.09448 1052.3622"
   sodipodi:docname="line.svg"
   inkscape:export-filename="/home/javi/Documents/Git/Surf/documentation/configuration file/figures/line2.png"
   inkscape:export-xdpi="90"
   inkscape:export-ydpi="90">
  <defs
     id="defs4702">
    <marker
       inkscape:stockid="Arrow1Mstart"
       orient="auto"
       refY="0.0"
       refX="0.0"
       id="Arrow1Mstart"
       style="overflow:visible"
       inkscape:isstock="true">
      <path
         id="path4810"
         d="M 0.0,0.0 L 5.0,-5.0 L -12.5,0.0 L 5.0,5.0 L 0.0,0.0 z "
         style="fill-rule:evenodd;stroke:#000000;stroke-width:1.0pt"
         transform="scale(0.4) translate(10,0)" />
    </marker>
    <marker
       inkscape:isstock="true"
       style="overflow:visible"
       id="marker7756"
       refX="0.0"
       refY="0.0"
       orient="auto"
       inkscape:stockid="Arrow1Mstart">
      <path
         transform="scale(0.4) translate(10,0)"
         style="fill-rule:evenodd;stroke:#ff0000;stroke-width:1pt;stroke-opacity:1;fill:#ff0000;fill-opacity:1"
         d="M 0.0,0.0 L 5.0,-5.0 L -12.5,0.0 L 5.0,5.0 L 0.0,0.0 z "
         id="path7758" />
    </marker>
    <marker
       inkscape:stockid="Arrow1Mend"
       orient="auto"
       refY="0.0"
       refX="0.0"
       id="Arrow1Mend"
       style="overflow:visible;"
       inkscape:isstock="true">
      <path
         id="path5274"
         d="M 0.0,0.0 L 5.0,-5.0 L -12.5,0.0 L 5.0,5.0 L 0.0,0.0 z "
         style="fill-rule:evenodd;stroke:#ff0000;stroke-width:1pt;stroke-opacity:1;fill:#ff0000;fill-opacity:1"
         transform="scale(0.4) rotate(180) translate(10,0)" />
    </marker>
    <marker
       inkscape:stockid="Arrow1Mend"
       orient="auto"
       refY="0"
       refX="0"
       id="Arrow1Mend-3"
       style="overflow:visible"
       inkscape:isstock="true">
      <path
         inkscape:connector-curvature="0"
         id="path5274-6"
         d="M 0,0 5,-5 -12.5,0 5,5 0,0 Z"
         style="fill:#ff0000;fill-opacity:1;fill-rule:evenodd;stroke:#ff0000;stroke-width:1pt;stroke-opacity:1"
         transform="matrix(-0.4,0,0,-0.4,-4,0)" />
    </marker>
    <marker
       inkscape:stockid="Arrow1Mend"
       orient="auto"
       refY="0"
       refX="0"
       id="Arrow1Mend-3-3"
       style="overflow:visible"
       inkscape:isstock="true">
      <path
         inkscape:connector-curvature="0"
         id="path5274-6-5"
         d="M 0,0 5,-5 -12.5,0 5,5 0,0 Z"
         style="fill:#ff0000;fill-opacity:1;fill-rule:evenodd;stroke:#ff0000;stroke-width:1pt;stroke-opacity:1"
         transform="matrix(-0.4,0,0,-0.4,-4,0)" />
    </marker>
    <marker
       inkscape:stockid="Arrow1Mend"
       orient="auto"
       refY="0"
       refX="0"
       id="Arrow1Mend-3-3-0"
       style="overflow:visible"
       inkscape:isstock="true">
      <path
         inkscape:connector-curvature="0"
         id="path5274-6-5-6"
         d="M 0,0 5,-5 -12.5,0 5,5 0,0 Z"
         style="fill:#ff0000;fill-opacity:1;fill-rule:evenodd;stroke:#ff0000;stroke-width:1pt;stroke-opacity:1"
         transform="matrix(-0.4,0,0,-0.4,-4,0)" />
    </marker>
    <marker
       inkscape:stockid="Arrow1Mend"
       orient="auto"
       refY="0"
       refX="0"
       id="Arrow1Mend-3-3-8"
       style="overflow:visible"
       inkscape:isstock="true">
      <path
         inkscape:connector-curvature="0"
         id="path5274-6-5-7"
         d="M 0,0 5,-5 -12.5,0 5,5 0,0 Z"
         style="fill:#ff0000;fill-opacity:1;fill-rule:evenodd;stroke:#ff0000;stroke-width:1pt;stroke-opacity:1"
         transform="matrix(-0.4,0,0,-0.4,-4,0)" />
    </marker>
    <marker
       inkscape:stockid="Arrow1Mend"
       orient="auto"
       refY="0"
       refX="0"
       id="Arrow1Mend-3-3-8-2"
       style="overflow:visible"
       inkscape:isstock="true">
      <path
         inkscape:connector-curvature="0"
         id="path5274-6-5-7-3"
         d="M 0,0 5,-5 -12.5,0 5,5 0,0 Z"
         style="fill:#ff0000;fill-opacity:1;fill-rule:evenodd;stroke:#ff0000;stroke-width:1pt;stroke-opacity:1"
         transform="matrix(-0.4,0,0,-0.4,-4,0)" />
    </marker>
    <marker
       inkscape:stockid="Arrow1Mend"
       orient="auto"
       refY="0"
       refX="0"
       id="Arrow1Mend-3-9"
       style="overflow:visible"
       inkscape:isstock="true">
      <path
         inkscape:connector-curvature="0"
         id="path5274-6-3"
         d="M 0,0 5,-5 -12.5,0 5,5 0,0 Z"
         style="fill:#ff0000;fill-opacity:1;fill-rule:evenodd;stroke:#ff0000;stroke-width:1pt;stroke-opacity:1"
         transform="matrix(-0.4,0,0,-0.4,-4,0)" />
    </marker>
    <marker
       inkscape:stockid="Arrow1Mend"
       orient="auto"
       refY="0"
       refX="0"
       id="Arrow1Mend-3-3-0-7"
       style="overflow:visible"
       inkscape:isstock="true">
      <path
         inkscape:connector-curvature="0"
         id="path5274-6-5-6-8"
         d="M 0,0 5,-5 -12.5,0 5,5 0,0 Z"
         style="fill:#ff0000;fill-opacity:1;fill-rule:evenodd;stroke:#ff0000;stroke-width:1pt;stroke-opacity:1"
         transform="matrix(-0.4,0,0,-0.4,-4,0)" />
    </marker>
    <marker
       inkscape:stockid="Arrow1Mend"
       orient="auto"
       refY="0"
       refX="0"
       id="Arrow1Mend-3-9-0"
       style="overflow:visible"
       inkscape:isstock="true">
      <path
         inkscape:connector-curvature="0"
         id="path5274-6-3-6"
         d="M 0,0 5,-5 -12.5,0 5,5 0,0 Z"
         style="fill:#ff0000;fill-opacity:1;fill-rule:evenodd;stroke:#ff0000;stroke-width:1pt;stroke-opacity:1"
         transform="matrix(-0.4,0,0,-0.4,-4,0)" />
    </marker>
    <marker
       inkscape:stockid="Arrow1Mend"
       orient="auto"
       refY="0"
       refX="0"
       id="Arrow1Mend-3-9-0-5"
       style="overflow:visible"
       inkscape:isstock="true">
      <path
         inkscape:connector-curvature="0"
         id="path5274-6-3-6-5"
         d="M 0,0 5,-5 -12.5,0 5,5 0,0 Z"
         style="fill:#ff0000;fill-opacity:1;fill-rule:evenodd;stroke:#ff0000;stroke-width:1pt;stroke-opacity:1"
         transform="matrix(-0.4,0,0,-0.4,-4,0)" />
    </marker>
    <marker
       inkscape:stockid="Arrow1Mend"
       orient="auto"
       refY="0"
       refX="0"
       id="Arrow1Mend-3-3-8-2-7"
       style="overflow:visible"
       inkscape:isstock="true">
      <path
         inkscape:connector-curvature="0"
         id="path5274-6-5-7-3-6"
         d="M 0,0 5,-5 -12.5,0 5,5 0,0 Z"
         style="fill:#ff0000;fill-opacity:1;fill-rule:evenodd;stroke:#ff0000;stroke-width:1pt;stroke-opacity:1"
         transform="matrix(-0.4,0,0,-0.4,-4,0)" />
    </marker>
    <marker
       inkscape:stockid="Arrow1Mend"
       orient="auto"
       refY="0"
       refX="0"
       id="Arrow1Mend-3-3-3"
       style="overflow:visible"
       inkscape:isstock="true">
      <path
         inkscape:connector-curvature="0"
         id="path5274-6-5-67"
         d="M 0,0 5,-5 -12.5,0 5,5 0,0 Z"
         style="fill:#ff0000;fill-opacity:1;fill-rule:evenodd;stroke:#ff0000;stroke-width:1pt;stroke-opacity:1"
         transform="matrix(-0.4,0,0,-0.4,-4,0)" />
    </marker>
    <marker
       inkscape:stockid="Arrow1Mend"
       orient="auto"
       refY="0"
       refX="0"
       id="Arrow1Mend-3-3-8-2-7-3"
       style="overflow:visible"
       inkscape:isstock="true">
      <path
         inkscape:connector-curvature="0"
         id="path5274-6-5-7-3-6-5"
         d="M 0,0 5,-5 -12.5,0 5,5 0,0 Z"
         style="fill:#ff0000;fill-opacity:1;fill-rule:evenodd;stroke:#ff0000;stroke-width:1pt;stroke-opacity:1"
         transform="matrix(-0.4,0,0,-0.4,-4,0)" />
    </marker>
    <marker
       inkscape:stockid="Arrow1Mend"
       orient="auto"
       refY="0"
       refX="0"
       id="Arrow1Mend-3-3-3-6"
       style="overflow:visible"
       inkscape:isstock="true">
      <path
         inkscape:connector-curvature="0"
         id="path5274-6-5-67-7"
         d="M 0,0 5,-5 -12.5,0 5,5 0,0 Z"
         style="fill:#ff0000;fill-opacity:1;fill-rule:evenodd;stroke:#ff0000;stroke-width:1pt;stroke-opacity:1"
         transform="matrix(-0.4,0,0,-0.4,-4,0)" />
    </marker>
  </defs>
  <sodipodi:namedview
     id="base"
     pagecolor="#ffffff"
     bordercolor="#ffffff"
     borderopacity="0.0"
     inkscape:pageopacity="0.0"
     inkscape:pageshadow="0"
     inkscape:zoom="1.18"
     inkscape:cx="-720.50371"
     inkscape:cy="372.96739"
     inkscape:document-units="px"
     inkscape:current-layer="layer1"
     showgrid="false"
     inkscape:window-width="1920"
     inkscape:window-height="995"
     inkscape:window-x="0"
     inkscape:window-y="0"
     inkscape:window-maximized="1" />
  <metadata
     id="metadata4705">
    <rdf:RDF>
      <cc:Work
         rdf:about="">
        <dc:format>image/svg+xml</dc:format>
        <dc:type
           rdf:resource="http://purl.org/dc/dcmitype/StillImage" />
        <dc:title />
      </cc:Work>
    </rdf:RDF>
  </metadata>
  <g
     inkscape:label="Layer 1"
     inkscape:groupmode="layer"
     id="layer1">
    <text
       xml:space="preserve"
       style="font-style:normal;font-weight:normal;font-size:30px;line-height:1000%;font-family:Sans;letter-spacing:0px;word-spacing:0px;fill:#000000;fill-opacity:1;stroke:none;stroke-width:1px;stroke-linecap:butt;stroke-linejoin:miter;stroke-opacity:1;"
       x="-354.79453"
       y="-65.446037"
       id="text8701"
       sodipodi:linespacing="1000%"><tspan
         sodipodi:role="line"
         id="tspan8703"
         x="-354.79453"
         y="-65.446037" /></text>
    <text
       xml:space="preserve"
       style="font-style:normal;font-weight:normal;font-size:40px;line-height:1000%;font-family:Sans;letter-spacing:0px;word-spacing:0px;fill:#000000;fill-opacity:1;stroke:none;stroke-width:1px;stroke-linecap:butt;stroke-linejoin:miter;stroke-opacity:1"
       x="-515.61591"
       y="766.68823"
       id="text8705-7-3"
       sodipodi:linespacing="1000%"
       inkscape:export-xdpi="90"
       inkscape:export-ydpi="90"><tspan
         sodipodi:role="line"
         id="tspan8707-5-6"
         x="-515.61591"
         y="766.68823"
         style="font-style:normal;font-variant:normal;font-weight:bold;font-stretch:normal;font-size:20px;font-family:Sans;-inkscape-font-specification:'Sans Bold';fill:#ff0000;fill-opacity:1">name</tspan></text>
    <image
       y="376.21149"
       x="-636.60272"
       id="image4288"
       xlink:href="data:image/png;base64,iVBORw0KGgoAAAANSUhEUgAAAhAAAAFuCAYAAADQwCGlAAAABHNCSVQICAgIfAhkiAAAIABJREFU eJzs3Xd4FFXbwOHfbEk2IZAESAgdC72JIEgTUDoqEHoRpSqg+KpIs72WDxQEESyvig0U6VjoXbpS QhdBQQghvdet8/2xsBJSN22z4bmvay/YKWee3Z3MPDPnzDlKbFKaihBCCCGEEzSuDkAIIYQQ7kcS CCGEEEI4TZfbTKPZyvaQq2wLucrpf2KJjE8n3WQuqdiEEEIIUQK8PPRU8feiaZ1KdG9Ri24tauGp 1+a6jpJTG4jNR/9hzqpjhMYkF0uwQgghhCidalYuz8zBLenVqk6Oy2RJIKw2lTmrjvLltrPFHZ8Q QgghSrGx3Rszc3ArtBoly7wsbSAkeRBCCCEEwJfbzvLuqqPZzsuUQGw++o8kD0IIIYRwWLLtLJuP /pNluiOBMJqtzF6ZfZYhhBBCiDvXnFXHMFlsmaY5EojtIVe5FptS4kEJIYQQonQLjUlm2/ErmaY5 EohtIVdLPCAhhBBCuIftIaGZ3jsSiNP/xJZ4MEIIIYRwD7fnCY4EIjI+vcSDEUIIIYR7iExIy/Te kUBID5NCCCGEyEmaMXOeUCJjYSSunlgSmxFCCCFECcl1LIziNqlPM8b1aALAkq1n+GTjKVeGI4QQ Qoh8clkC8f7Yjozv2YTnP/uVQ3+E8/GkLtwd5MvUL/e5KiQhhBBC5JNLhvN+8pGGjO/ZhH1nwmhQ 058/w+J5/K1f6NC4GqMebuiKkIQQQgjhhBJPIFrcE8BbT7TFalNZ8GMIbeoFAfbGGSPnbeWNEW1o cU9ASYeVp8TVE6lX3c/VYQghhBClQolWYVSrWI7lL/fkq21n6dGyNr/9GUHDmhXRaTVYrDb+Ck/g P5/vZfnLPXl45jrC41OzLSdx9UTSTRZUVSUxzcSBs9d54/vDXIspmZ40B3esy55T14hKlEdfhRBC 3JlK7A6Et6eeFdN78eW2c1yNTubEpWhSM8xci03JdGW/I+QqNhVWzuiFt6c+x/K6vbKeqiOX0GX6 WgweOr58vltJfAz0Wg2vDWuDn49niWxPCCGEKI1KLIFY+lJ3LlxP4P11x7jv7gBC/o4G4OSlaJrf 9W+VxYSeTThxKRqTxcayqd3xz+NEHR6fyve7z9OkdiXHNB8vPUtf6s71ZeP4+fXHqOLn7Zg3sksD /vz8Sf75egwLxj/kmH57FUW96n7ZPn76w/Re1Aooz4rpvdk9Z0CuZQohhBBlVYlVYXRrUYt9Z8KY OfgBHm5eE4OHjsoVvAiqWI4nHm5AnSoVAHji4QbsP3ud3y5E8Eyvphz9cBhbjl1h8ie7sy03yN+b UY80ZOfJf8fymDHoATQaDXeN+Zp3RrXj7SfaMmHxTgDmPNWeJxds49Af4dxbzfk2DQNnbyRx9USG vreJC2EJRVKmEEII4W5K7A6E0WylXaNq+JXzpFJ5A/9EJgHw1/UE6lb3B+zJgKdey+XIJDJMFtJN FgBUNWt52/+vP1HLJ/Dn509y6p8YJiza6Zj3eJu7WLbzD4xmK+sP/kXnZjUc88LjU3m8zd2gwOl/ YorksxVHmUIIIURpVmIJxN4zYWg1CuW99Ww++g9zVh1hzqojvLL0IOU8dcxdc5QjFyLZdfIac1Yd IcDXm9/+jKDV8z/w7KdZ7z50e2U9gcM/Z9+ZMMLjUskwWx3zqviX49uXuhP+3TjWvtIHH8O/bSmG v7eFutX9OLF4BF1uSSxup1GUfH+2/JYphBBClBUllkCMmr+Nk5eiGdShHgt+DHFMT0k3ExabSv0a /rSuH8Th8+H8p18L7rurMiPf30p8ijHXct9dfZTpg1rh5fFvbUxUQhpD3t1M1ZFLqDpyCdWeWOKY 91d4An3e+IlPN53i02cfdky3WG3otVrH+2qVfPL92XIqUwghhCirSiyBSDOaGfLuZmIS07j7RnuH m0L+jqLF3YE8ULcKQf7lmNCzCUPe3Uy60ZJnufvPXedSeCITejZxTPvp8CUm9WlG5QpeVCpvoG2D qoD9SZCW9wYCcDkiKdNdhgthCQzuWBetRiHQ14uX+t+f4zajEtO5t6ofOq0m1zKFEEKIsqpE+4EI j09l+LwtrJ7Zhz9C4/kr3N4I8bc/I+jRshYNavpTxd+bAf+3Icc+ILLz3ppjfPtid77ecY6kNBOz Vx5h/riOhCweDsDiX05w6Hw4Wo3CB+Mf4p6qfsSlZPDSF3sdZTz/2R4WTujEhF5NiIhP4/XvDvNg g6BstzdvzVG+mNKVNJOF+59bnmOZQgghRFmlxCalqQB3jfmm2DaSuHoivoM+dbx/8pGGTOzTjIdn riPNaKZOlQqcWDwCRYHnPt3D0l1/FFssQgghhCiYy1895fi/S8bC+HbnH+w/e52fX3+M+tX9CfT1 Ij4lgy+2nJHkQQghhHADLhuNc+qX+5jUpxk/TO8FwLy1x2Q4byGEEMJNuCyBAPhk4ylJGoQQQgg3 VCJVGLe2fxBCCCGE+3NJGwghhBBCuDdJIIQQQgjhNEkghBBCCOE0SSCEEEII4TRJIIQQQgjhNEkg hBBCCOE0SSCEEEII4TRJIIQQQgjhNEkghBBCCOE0SSCEEEII4TTHcN5CCCGEEPmVaTAtm81GxLWr GI0ZropHCCGEEKWIwWCgSvVaaDSZKy0yJRARYVepVrUKFStWLNHghBBCCFE6xcTGEXk9lKo1amea nimdMGZkSPIghBBCCIfKlSqSkZ6eZbo0ohRCCCGE0ySBEEIIIYTTJIEQQgghhNMkgRBCCCGE0ySB EEIIIYTTJIEQQgghhNMkgRBCCCGE0ySBEEIIIYTTJIEQQgghhNMkgRBCCCGE0ySBEEIIIYTTJIEQ QgghhNMkgRBCCCGE0ySBEEIIIYTTJIEQQgghhNMkgRBCCCGE0ySBEEIIIYTTJIEQQgghhNMkgRBC CCGE0ySBEEIIIYTTJIEQQgghhNMkgRBCCCGE0ySBEEIIIYTTJIEQQgghhNMkgRBCCCGE0ySBEEII IYTTJIEQQgghhNMkgRBCCCGE0ySBEEIIIYTTJIEQQgghhNMkgRBCCCGE0ySBEEIIIYTTJIEQQggh hNMkgRBCCCGE0ySBEEIIIYTTJIEQQgghhNMkgRBCCCGE0ySBEEIIIYTTJIEQQgghhNMkgRBCCCGE 0ySBEEIIIYTTJIEQQgghhNMkgRBCCCGE0ySBEEIIIYTTJIEoQlOnTqdLl25MnPgcMTExeS7fpUs3 UlJSSiAyURQuXbpEt269uHTpUoHLkN+8bLtTjwE//7yBAQOG8Nxz/ykzn0nkTRKIXLRs3wlFUbJ9 tWzfKcvy77//HgAzZ06jcuXKRRbH4cO/YTabnZ5X2rkq9vYPtcnxd23/UJsc19u2bQd9+vRm+/ad RR6TzWZj1KgxpKamFqoc2VeKVpcOrXLcV7p0aJVleVccA0qDpUu/Y968OSxa9IGrQwFK//dVVkgC kYvjB/dS5+vL2b6OH9xbIjFYrVY+/HAxRqPRqXmlnStjP7jvdz77fUC2r4P7fs92HVVVOXDgEGPH jubAgUOoqlrg7Ws0Wf/sNBoNS5d+Rbly5QpcruwrRW/PgWOkLa+b7WvPgWMlEoM7/HZxcXEEBgai KIqrQ3GL76uskASimD32WH+WL1/BkCEjGDhwaI5Xr/Hx8cyY8QrDho3kmWcmc+HCRQBmz36PiIhI pk+fxcsvz8i0TnbzcirnZiyrV69l6NCRBAcPZsOGTSxZ8hVDhgzPEttjj/Vn2bLvGTRoGOPHP8PV q6F5xgowYMAQVqxYRXDwYAA2b97CqFFjGDx4OCNHPsmuXbtzjP3WW58pKSl06dItx3Jzi6E4HD8e wl131aZ8eR/uuqsOISEnHPOc+V4BvvtuOYMHD8/yvd76+fP6HbPbp2Rfyb7ckt5Xblecx4Cb5ef3 t8rpOwZYvXoNQ4eOZODAoSxY8GGe0296//0FqKrK9OmzssyLjIzkxRdfZtCgYUydOp3o6GgSEhLp 3ftxx922pKQkunbtybVr1wBIS0ujT5++JCQkZiqrMPuLq/eBMis2KU29+Tp67Lgq/gWodb6+nO0L yHadzp27qleuXM30/rvvlquqqqpHjhxVBwwYnGlecnKyqqqq+tZb/6f++uteVVVV9fjxEHXs2AnZ Lpfd9m6dl1c5N2M5d+4PtUuXburKlatVVVXV338/kiW2X37ZoKqqqq5Zs06dPn1WvrbRpUs39fvv f1CtVquqqqp67VqYmpCQoKqqqv79999qv34Dcoz91vfJyclq585dcyw3txjyAqif/T4g21dOv+uc OXPVLVu2qqqqqjt27FLffXduprid+V5//vkXVVWzfq/O7A/52aduJ/tKwfaVtOV1s32VpmNAfn+r 3L7jXr0eU0NDQ1WbzaZevx6e5/TbY7gZ363/nzXrVXXt2vWqqqrq6tVr1ddff/PG9NfUzZvtf08b N25Sp0+fpa5YsUpVVVXdtGmL+uqrb2TZRmH2l8LsA8Lu6LHj6q35QmxSmqpzZfJyp+jRw351VL9+ fWJj47Jd5ujRY5w8eYrFiz8Bsr/NnR95lXMzlgYN6qOqKo888vCN9w2yxNa+fTsAOnXqyDffLM3X NlRVpVu3RxzTUlJSWLhwEVeuXEVV1SxXFfl1e7lF9X3lh9Fo5ODBQxw7dpwlS752TDMajXh6egJF 873eKr+/Y277VF5kXyk5xX0MyO9vldt33KdPL1577U1GjBjKww93yXN6fpw6dYYXXngegM6dH2Lp 0u8A6NmzBz///As9e3bn11/38fTT41i8+BOGDBnEjh07CQ7ul6WswuwvpWEfKIskgSgBBoMBgNyq B1VVZeHC+dSoUb1Q28qrnH9jsQfj6emRY2w2m+r499b5eW3Dy8vL8f8333yHESOG0atXDxISEhgw YEge8dv/TUtLz7Xcovq+8mP//oO0bt2KV1/99xbt//3fuxw4cNBxQHXme735GW//XjMvk9/f0emP U4BtyL5SWMV9DMjvb5Xbdzx58kT++utvPv98Cbt37+H//u/tXKfnx61tIlT7DR0A2rZtw8KFiwgP Dyc1NY27774bm83GtWvX+OefK7Rp0zrb8gq6v5SGfaAskjSslGjVqiVr167DarVitVq5cuWKY563 tzfh4RHZrnf7vNzKcdbevfsA+PXXX2nUqFGBtpGSkkLduvei0WjYuHFzrrH7+/vz559/ArB9+45c YyvKz5mX7dt30KFDh0zTOnRox7ZtuceYk5y+11sV9PPJvpJVSe4rhVHQY4AzcvqOjUYjYWHXuffe e5g48WlOnTqT6/T8uu++5rfsG/to2rQpADqdjs6dO/Hll9/Qvn1bANq0ac1XX33Lww93RqfL+9rW mf3FXfYBdyMJRC7ub/cQ/4y+K9vX/e0eyrL8zQY7c+bMzdcz4LeaMuVZYmPjCA4eTP/+A9mxY5dj 3tChg5k6dTrDho3Mst7t83Irx1mRkZEMHDiUrVu3M2nSM/mK9XYTJoxl6tTpDB/+BB4eHlSpUiXH 2J9+ehzvvjuXIUNGoNVqcn0ioTCfs13H1jzdem22r3Yds175nDp1mjZtHsg0rXXrBzh16jQJCQn5 3i5AYGAAcXFx2X6vRfH5ZF/JqjCfs3P7lngPv5jtq3P7llmWd8UxwBk5fcdWq5XXX/8vgwYN45VX XmPixAm5Ts+v556bxIEDhxg0aBgHDx5iypTJjnm9evVg9+49dOxoT87btXuQX3/dS8+ePQr1WaB4 93XxLyU2Kc3xPNrli+dpeX8LV8YjSokuXbqxYcOPhXqsUNwZZF8Rouw7djyEu+o2yDRN7kCIHKmF 6OtA3FlkXxHiziMJhBBCCCGcJk9hiGzt3r3d1SEINyH7ihB3JrkDIYQQQginSQIhhBBCCKdJAiGE EEIIp0kCIYQQQginSQIhhBBCCKdJAiGEEEIIp0kCIYQQQginSQIhhBBCCKdJAiGEEEIIp0kCIYQQ QginSQIhhBBCCKfdcQnEjh07GT16PH37DmDSpOf4++9LjnkZGRksWfIVXbv2xGQyZbv+L79soEuX bjnO7969d6bXww93L5bPIYQQIqv8HMcBzp8/zzPPTGbAgCE888xkzp8/n2WZ7I73+VnvTnHHJRAJ CYnMmjWdn35aS9++jzFv3nzHvEWLPqJDh/bYbLZs142JiWHjxs14e3vnWP62bZscr7ff/i/Nmzcr 8s8ghBAie3kdx2+aPXsuo0aNZO3alYwYMZw5c+Zmmp/T8T6v9e4kd1wCMXBgMHXr3gtA27YPcuXK Vce8adOm0qBBfVRVzXbdDz74kFGjnsg1q73Vhg2b6NWrR+GDFkIIkS95Hcdvio2NpWHDBgA0btyQ 2Ni4TPNzOt7ntd6d5I5LIG71xx/nHclEXnbt2o2np4F27R7EYrHkuXxcXBwnT56iU6eHChumEEKI ItarVw8WLfqI8PAIFi/+mP79+zrm5Xa8z229O43O1QG4itFo5LPPvuC55ybnuWxSUhLffruMDz9c kO/yN2/eSqdOHfH09ATst8Oio6MzLVP7ZDCx7baAckfncUII4bT09HSsVmumaQEBAVSuXDlf648c OZzRo8czefIUfH19mTFjGpD38T6n9e5Ed2QCoaoq77wzh/bt29GixX15Lv/RR58wfPhQ/Pz88l3+ pk1bmDVrumNa5cqVM+3YYWFhKKqVGoHlUAz52+FFzoxGI4mJiQQGBro6lDIjNDSUmjVrujqMMiMq KgpfX1/HRYUonLCwMFRVpUaNGgVa//33PyA4uB/Dhw9l4cJFLFiwkJkzp+d5vM9pvTvRHXnpu2jR R3h5GRgz5ql8Lb99+07mz1/oeLIC4NFH++W4fEjICXQ6LY0bN8qzbDU9Kl8xCCGEKDpHjx6jX7/H 0Wq1jB07hn37DgB5H+9zWu9OdMclEN99t5xr18KYNm0qiqLka53du7dneroCYMOGHwHYt28/vXo9 lmkncqbxpJoenfdCQgghCuX2Y3VgYCCnT58BICQkhBo1qgO5H+9zW+9OdMdVYXz55dfo9Xp6937c MW3WrBl07lywxo6qqmZ6XCgxMZGDBw/x7LMT87e+3IEQQohid/uxevr0l1i4cDHz5y8kIKAy06e/ nK9yCrpeWaTEJqU5nnW5fPE8Le9v4cp47hhhYWFU3NsFfdPn0TXJuyGnyJ20gSh60gYCzDYVvSZ/ dyrzIm0gilZh20AI5xw7HsJddRtkmnbHVWGUNnIHQri7q8lmcn/i3v3sCk1jyOZIGn9/lZh0a94r uKl0i0qaOfcOl4TIyR1XhVHaqBnSBsJVfr6cypZ/0kg2W+lZx4cR9XxcEofZprLu7xS0wPlECzpU +tQpR9PKpfdK9ePTifz0dwr/JFkw21SWPBLIIzVz7qHVnZyKMTJuZ5QjKRq8OYJdwWWrnlsFnv81 ms1X0lBV6FLTwBcPV3F1WMLNSALhYmpapKtDuCM99st1zsTe7GFOZf/1DFZeSOLbrlXwN2hLNJbf IzKYcSA207TPziTRvZY3nz1c+qpk5h9P4KNTCZmmPfdrNFv6VqdWefc/pMw8FIsK+HlqSDapXE4y M2Z7JF91Kzsn2PE7I9kZmu54v+NqOn1+vs76R6vhUQL3pdMtKl66oqkaEq7j/n/tbk7uQJQsk1Wl 50/XuZxkBqCiQYtGgZh0K6djTDy46hqP3lWOZgGePBDoQaOK/94FUAGzVcVD+++BLzrNysGIdExW 6FjNQEWDFqPVfnA8GpVBTR891X1y/jMzWlWm3Uge9BrQ3HgyyGhV2XY1jYbLrlDJS0t9Pz11/Txo U8WTB4K88NHnfPBNMFq5kmxBtapYUCjnqcFHA+fizXSu4UVItJHWVQwUpGp/29U0Pj5tTx5qV9Dx ZANfPjyZQKLRSpe11/DztH+fFQ1aapTT0rqqJ/cFGKhi0FK9vB59DicnqwoaBW4PKdFoJTLNSqpZ pU4FHRU8NGg1CrEZVioVQ6I352gc52JNKIrCut5VWX4hmS/PJrE7LJ36y66gAB4aqFFezz1+eur7 eVCnvI4WAZ4EemvzbC9hU+2fFeyftYiaVzhl4+VUdt1IHnrU8sKg0/DTpVTOxZm474er1Cmvp5JB w10V9HSraaBDde8sv0tuTFbV/lsqCloFMqwqhlv+ZtLMNlqtDEWjKAR6aXnnQX/q+HryyakE/kww UcVLx4stfLnb1+PfdSw2vHX/7jwWW1mrNHNP0ojSReyNKB8GjRavwWekN8pCyk8jyreOxPPj3ynE Z1hRgOea+fLC/f4ArPsrmRkH4jDf1n++VgG9RsFoU8mja/1saTUKs1r5M6ZRhWznv7Avmh//TkWv gWNDa1H+xuXfC3tj+PFSinMbUyCvxgjdapVj+9VU6lTQ803XQGpX0Oe47O2NKI9EpPPkjijSLSo1 fHTsHVgDBTgamcHoHVGkFEFdej4+gmOh2uX1zGrlR/fa5Qq9XYA/E0w89vN1zDZ4/O5yfPhQAOD8 b6HVgE5RUNWbn0XFqoKKgop9ogb7vvFAFU/mdahMtXIlcy0XmWqh49owzDaVDlUNLOsRBMDX55J4 +/e4bL97BVAU0CoKNtX+d6De8kMpN/5/c1319nUBrVahTaAnCzsHMnxTOBcSzXnGqiigqGC7ZYKi qpnK1yrw15N18vvxRSFk14hSEggXCQsLw/9QXxRzEob+B1AMAa4Oya3llUA8tyeaDf+k2t8oCjNb +jGhiW+mZZJMNp7ZHcXJaCMWG5jyeZWj0Sigqtiw/3vTrSfDuyro2dy3Gp7azNdyPX4M40KCmdGN fHm9tX+meduupnE6xsSu0DQi0iykW1WMVpX8hKXh34O8SvYnZi+dwq8DahDglf2V/O0JRJuVoUSl W/H10LB3YA0q3HKvOybdyocnE0kyWYlItZJkthKbbiPBaMWiKvaBjfKVHWR18xvLblWtRuHMiFqZ rnALIjLNwsPrr5NmtlHRoOXY0H8/t9GqsvqvFFRV5XqqlbAUC+fjzcSkW0izqJhtYCtIdnlDRU8t x4YV/9MuRouNB1eHkWC0YtAqHB5SE99bfsOQaCNfnUvifLyJdLON+Awb6Va1SBvIeuk0pFusKIqG 55r58sOFZKJvNFL10in4eWqJN9rIsOQ/Gb38VJ0ijFDkJLsEQqowXMmSBoA1+hi6mj1dHEzZ9dK+ GEfy0CbIwMyWfjQPMGRZroKHhuU3rsgATBYbS8+nEJVuoVstbxr6e+ClU7DcuJrUKipaRXHchjbb 7CcTvWK/ajLbVCbsiuJQRAaXk8xM2BnFt93/rUdfeSGZCwlmKhq0zGiZtdvc7rW86V7Lm5fuzzrP foC9kbDcTBQUBYtNddzFuF3wpghCojK4y1fP1WQL6RaV/dfT6X9P3o1HYzOsxJvsB/Vvu1fJlDwA VPbS8vaDFXMtw2wDi9Vexq25xM1b+VYVQlOtWG02avro8NJruTUvsKqQbrah18DJWBOjd0SRZrax +EQCL7f0v31z+RaabOHRn+3Jg0GnYXmPzG0dPLUKI+uXz7OcNItKXLqVU7FGzsSaMKsqfp5a/D01 VPXWkpKURN3A8lQuZ+BKspltV9JYci6ZOKOV/51O4Jmm+esqv6Am/xpDgtGKToHvelTJlDwAtAjw ZHGnrBcyfyeYOB5tby/kZ9Bg0CoYLSrl9ApeOoU0i4rFBqkWG7XL67nXVw+qitmmcjHRQqrFxo4r aSw9n0y6xYZGUXj+Pj+mNPflhRZ+hKdYsKoqlb11jkQwLsPKuXgTVhvcXUFPtXJarqVYSDDZqFVO Szm9hrDr19GUued/3IskEC5k86yMNiMCNeFPkASiWAzZEs7vEUZApXWQFyt6BuW5zk0eOg3jmmSt evj3ej3zVa9eo2Sq4/fUKizvEcTXfyTz1m+x7A9PZ/e1dLrU8AJg/gl7W4K7ffWZ2lXkh8FRH3z7 ejmXs653EPOOxfNyS3++PJvIO0fief23OJpW9rQf9HPx2uFYzFaVbrW8aV7Ap0P0GtBrcq+qq+eX 83ytAj43TnqtqxiY2cqf1w7F8unpRB69qxwNK3rkuG5OzDaVxzdcJ8lsQ6vA990Dqe/vfDkA3joF 7/I6apTX0btO1mqVqKgUfMvr8PTUUtlLS8tAA6kWle//TGbe8QS61vLmXt+CbTsvp2ON7Llmv2B5 vXVFWgZmTaBzco+fB/f4ORuXggdwX4D9r6V9VS/a1/Dm+T3RLOkaSNugf7dfNZs2QhUNWjpU9co0 rXYFPbVvee+hVQpUrSiKjlS8u1BGtQGA9AVRHD48EU+bVaH25EFReaRGOVY6kTwUpdENy3OPnwc2 VWXcjkg+PZXIqRgjMWlWdBqFd9vmfuVelG5eqQ+pWx6tAikmG91+DOORdde4kpx9vXRUmoWtV+wn n2al6NHSYfXK42/QogL9N0bw7rF44jKc67PhfJyJBKMNBVjTO4j7nTixFoU32lSiokGLTYXHfong f6cTSLcW7VnRbFMZtS0SqwrVfXQ80TD79jjFrWsNL86OrJUpeRDuTRIIF7JUaAyALSbExZGULe/8 HsfCE4lEpdlPJiPqVWBJV9c+DrmyZxUqeemwAXOPx9NvYwQqMPhenwJc3RWej4eGOe0rU9FTCypc SrLQZd11/rMvmtvPX8O2RmJToYqXlmeb+WZfoAtoFdj6eDX0WgWj1cZnpxNpuSKUQZsjsnyGnKz5 y944snedctyXTbVWcdNrYG2fIDQahQyLjfeOJdDkuyu8eig275XzwWKD3j9dJ8For575xsV/B6Js kSoMF7L63AtaA2rSJdT0KBS9N+hc05lRWfH6oViW/ZkMQLMAT15q4c9D1Vx/xVPJoOXw4JqM3h7J /vAMVFVFURQeqemV98rFZNC9Pgy614ePTyTwv3OJpJhUfrqUSiN/D8Y2ticK266mcSnRjAIs7eGa Ozi5CfDWsqVvNabvj+FEjL3x69HIDDqsucaWx6rim8ujnkkmG8vO2/ck0ovPAAAgAElEQVSVsdlU VZWUOuX1/NIniP/+Hs/RqAxsKnz/ZzKXkyx816OKU49Q3spkVXlk3TWupdoT6Vdb+XOvC5JVYXfx 4l/s2LGT06fPEBZ2nbS0NLy8vKhWrSqNGzeme/eu1K9fz9VhOkWewnCRm/24Vw55CjXlKigaNJXu w7PbCleH5paMRiNP7YjicLT9YNmokge/PFrNJc/Z52XTP6loULi/iieBOTwB4QrP7olm443Gpj56 DXOaqlxWfVkQksB9lT1Z/2hVF0eYOxWYdzye/51KRAUCvXXs7l8N7xw6n/jmjyTe/C0OL53CuZG1 s12mKOVnLAyrCk9ui+BARDqoCq0CDazu7XziZrKqtFsdSmyGvXrmxRa+PNu84A1NSyN3GgvjzTff Yc+eX6lSpQpNmzahZs0aeHl5kZaWxrVrYZw5c4aIiEg6d36IN954zdXhZkuewiiFFA9fezti1YYa dxrTgSnY4v/E8OhWV4fmNj47k8hXZxOJSre38O9QzYtl3Utvr4HZNbArDWa3q8SlBBPnE8ykmG28 dAIqeNiv0LN7EqS0UYBp9/tzr6+eqftiiEqz0G71Nb7qGsD9gVnv9Fy60RfB4HtLz10/rQLf9Qhi 5sFYVlxI5mhUBj1+DOPb7kEEeec/2Vx0MoHYDBsaBd5rV4mBdfN+ikQUn5SUFBYvXkiTJo1zXObs 2XMsXfpdCUZVeNIGwsW0TZ5B13QKGv9GqDYz1qtbUJMvY7201tWhuYXlF5N592icI3kIvqdcqU4e SrMKHho29K3O9v7VKKdXMNkgJsP+2F/bqq6ranFW8D0+fNolAK0CiSYbAzZFMmhTBLf3c7X9qr03 xgGlKIG4aU67Skxu7g+KwoUEM+1WhzrVLuJ4tBGAcY19JXkoBebNezfX5AGgceNGvPfe7BKKqGhI AuFiuurd0Dd5Fm2tzI9xqsZ4F0XkPlZfTObVg3GAQn0/HR8+4Mn8jtIhV2FoFLjH14PNj1fnnvIK HlqFhpU8KGQ/TSWuR+1yrOwVhL+n/RB3NCqDFsuvcCzKfmLdcaNzrnJ6hSal6MmSW01t4ct77Srh eeNxxe//TKbLujBSTLl3svTT5RQOhWfgoVWY0rz0NHoVdu+/v4Dffz9CQkIi48Y9zeOPB7Njx05X h1UgkkCUErpGT6PxqY22SlsALGE7Me+biBp7ysWRlU4fn0pg2oFYezsSg5bl3SrzYEDpaU/g7mqW 1/F1aw1/PlGb5d1LX+PJ/GgZaOD4sFqMaVQBLZBqURm4OYI5R+OYd8yeoFfx1hW4kWJJGFzXh3NP 1OaBQHuS80+SmVYrQzkUkZHjOt/9Ya92quevp1xOg48Il9m1aw8ajYalS5cRFRVNhw7t+OKLr1wd VoHI3lVqKHg+th19x49Ao0WNPo7l2k6Mh6e7OrBS5UhkBsEbI3j/uL0Tpmrl9OwOrk45Gdmv2PiU xPCMxei11hVZ1yeIigYNqCqfn0niQoIZL63CBw9VdnV4edIAq3pX5ZUHKqHTKBitKiO2RjBgUzim bJ5XDb/x+PKUMtZosqzQ6XTs2rWHjRs3M2LEMHr27EFsbNE8tlvS3PvIUAYpeh8UjSeOjn4tTg6o VIadizcxZEsEIdH2q68Gfh7sG1Td7U9wovg1CzDw+9BatA4ycGPAU7rW8qZZpdJZfZGdcY3Ls/HR ICoatKgqHI8y0nLFVc7HmxzL/BaRQViKharldHR14SPCIrPk5GTH/0eOHM7u3Xto3LgR/fo9zp9/ XqBWreIfC6U4yFMYpY6Crt5IrFc3oJrTUdMiscWfQ+PfyNWBudQfsUYGbIpAVcHPU8OohhV44b7S /2SAKD20wMqeQWRYVRafTGB8Y/drH1CvoidHh9Zk0YlEFp1IIMWs0vvn60xq6svU+/15+/c4AKqV 05bqqpk7zaBBw+jW7RGCg/szePBABg8eeMu8AQwaNMCF0RWcXLqVQrrmU/F8bA/amj0AMP+xxMUR udbesHQe2xBOhlXFQ6uwpndVSR5EgRm0Ci/f74+fp3se/hTg+ft82dS3Kj56DaoKH59K5MGVVzl7 427E8HwM/iVKTo8e3dixYxdjxoznxRdf5sCBg/YRat2cW92BKIs9eeVK5w2A7cpGLP710TV82sUB laxEo5V3jsaz7u9UbCp46xVW9gzinjwGfhLiTlDf34OTI2oxelske6+nE3njUebBdX3yNcKqKDkv vPA848ePZePGzfz440+8+uobVK0aRL9+fenduyc+Pu75e7lNT5RloSevW+WrFzXVSsaWvqgJFwDQ BDyAtlJTtPWeRClXunsFLKx0i0qrFaGkWewHxYqeGrb3r2FvCJcNo9FIYmIigYHS139RCQ0NpWZN 96ybLY3y0xNlQR0Iz+DTkwmcizdzeHANp0d3dUfu1BPlrVRV5cCBg6xdu54TJ05iMBjo0aMb//nP FFeHliu37omyrPbklStFi6Hnzxh3DMMWcwJb9BH7K+UKHh0/dXV0xSbNotJ1fRhpFhtajULn6l58 3DkAzzvgoChEQbSvaqB9Vfd83PZOoygKHTq0p0OH9ly6dJl169azZcu2Up9AZMdtKgGnTXuJevXq 5rqMO/bklSdFg2e3legajEbxsneSZIs/7+Kgik90moUHV18jPNWCAizuVJkljwRK8iCEKBPefns2 KSn2p+vuvvsupk59kXHjRvP44/2ZNOk5IiMjXRxh/rlNAvHBB4t46qlx2TY8GTNmPC+/PMMFUZUc fYsZGB7/FcUrEDU1DOu17a4OqUipwIoLyTy8PoxkoxUN8E7bSvSqXTrHjRBCiII4e/YcQ4eOZODA oRw5chSAFStWUaFCBdLS0vj88y9dHGH+uU0CcebMWZo3b4qiZL0SbdKkCefO/eGCqEqYRoemwj0A mA7+B2tY2UkieqwPY+bBWFLMKnqNhuW9qkpLciFEmWOxmGnVqiVNmzbm44/tVdFxcfH06NGdSZOe 4eTJky6OMP/cpg2EyWRCq82+q2JVtWEymbKdd7uMjAy++245K1asYtOmn/Hw8Mg0f9eu3Sxd+j1J SUk8//yzdOr0EABTp07n5MlTjgRm6tQX6d69a5by161bz/r1P5OSkkxAQCAvvDCFhg0bZFmuoHQt Z2LdNgQs6Zj2Tkbj3xDPzkvA4L5jQPxnbzQXb4yMWLuCno86VaaJG3XwI4QoPfI6xt/UvXvvTO8t Fgu7dm0DICYmhnfemcPVq6E0adKYmTOn4eVl75jr/PnzLFy4mOjoGAICKvOf/zxHgwb5P8YnJiYx duxTAIwZMwFVVR131n18fEhKSs5x3dLGbe5ANGhQn507d3Pw4OFM00NCTrBr1x7uuqtOvspZtOgj OnRoj82WdUCaU6dOs3r1WubOncO6dat46KGOjnkJCQl88slitm3bxLZtm7JNHgAqVKjA3LlzWL9+ DcOGDea9997P70fMF41vAwyP7UApXwsAW/wfpP/YEWvoliLdTkkZtjmCny6lAjCqYXn2BFeX5EEI UWC5HeNvdfNYvm3bJt5++780b97MMe+TTz6jdesHWLNmBb6+FVi27HvHvNmz5zJq1EjWrl3JiBHD mTNnrlPxBQVV4csvv2HJkq+pUiWQefMWoNFo2LhxM5999gVBQe7TGNZtEoinnx6Pqqq88spr9O07 gKeeGkv//gN58cWXSU9P58knn8hXOdOmTaVBg/rZtqVYv/5Hxo0bQ2Cg/Wr+1uqShIQEAgLyvsrv 2vURqt5oDX3ffc2Jjo7OV1zOUAwBGB7dgb7dAtAZQLVhvb6nyLdTnC4lmun9UxiHI+3dUj9S04s3 21RycVRCCHeX2zE+Jxs2bKJXrx6O9yEhIfTs2R2NRsPQoUP49dd9jnmxsbGOu8qNGzckNjbOqfgm T57ImTNnuHz5H959dzbnz59nypTJVKhQgcuXLzvuTrgDt6nCaNiwAV9++TnffruUI0eOERZ2nYoV /enQoT1Dhw6icePcx1rPj7Nn/6BKlSosXLgIT09PXnllpuPOhsVi5emnJ5KenkHz5s144YUpVKxY MceyYmPjWLLkS/r06QXYb6sZjUbHfKPRiKqqxMU5t/NlUr4dmqZv4RkyDXP0WVIKU1YJej0knY3X zKDae9UbVdeTKQ31hfoubDYbZrO5cN+nyEK+z6JjNptJTk4mNTXV1aGUCTePp4mJiY5pnp6eGAwG p8qJi4vj5MlTvPrqzFvKNjmqPvz9/YiKinLM69WrB4sWfcSECeP5/PMv6N+/r1Pba9OmNWvWrHS8 /+qrLzCZTPTt+7hT5ZQGbpNAAFSvXo1Zs4rvaYv4+Hj8/f1ZtuwbNm/ewqJFH/HBB/YqiLVrV6LV arFYLCxa9DELFy7mrbfeyLac4ODBJCcn06hRQ15/fQxgP3jceuCwWCxoNJpMSUVBKBVa4qHzQZN8 AWvceSzetUApvcNa7wq3siXUAti7FH7qbg2j7qbQ38PNesTCliMyk++z6KiqitlsdnUYZYbNZsNm s2U6rmo0GqcTiM2bt9KpU8dMHXzVq1eXgwcP0717VzZs2IRG8+/N+pEjhzN69HgmT56Cr68vM2ZM c2p7n332Bc88M8HxPikpiVmzXuOjjz50qpzSwK0SiJLQu3dPADp0aM/ixZ84pt9swKnT6XjyySd4 6qmxOZaxbt0qrFYrK1eu5tVX3+DTTz+ifPnylC//71MFN3tRq1q18D1KZvjdixpzAp+jY9BUao5n t5V5r+QCO0PTeP10FDagUUU9Gx+vXmRlS0+URS80NLRI9k9hV5w9Ud6Jbh5Dq1WrVuAyVFVl06Yt zJo1PdP0KVMmM3v2eyxb9h1t2rTG3//fodHff/8DgoP7MXz4UBYuXMSCBQuZOXP67UXnaOXK1VSo UIHhw4cSHh7OtGkziYhwn74fbuU2bSCuXg1lzJjx9Oz5KKNHjyc0NLTItxEYGEhCQgJgPyHl9Idu tVryzHK1Wi19+vTi8uV/ijrMrNuq3MJ+10G1YYs9gfXatmLfpjNU4KuzSYzfGYVNhYoGLat7yYlJ COFaISEn0Om0NG6cebTju+++myVLPmPZsm948ME2NGhQ3zHv6NFj9Ov3OFqtlrFjx7Bv3wGntvns s5NYsuQrPv98CZMmTSE5OYX333+vSD5PSXObBOKtt96hf/++LFw4n+Dgvrz11v8V+Ta6dn2YVavW YLPZ2Lp1Oy1a3OeYd+bMWVRVxWaz8cMPK2nX7kEA9u3bT69ejzl2opCQE47GO5s3b6FRo4ZFHuft 9C1m4DX0D3TVu4KqYjrwAljSin27+bH9ajqNv7vC20fiUIHKBi07+1XDW+82u54Qogy4/VgNWRtP 3i45OZlvvlmaqZ1DYGAgp0+fAeyNLWvUcO5O6oAB/Zk4cQI//GCvFv/0048yPQHiTtymCsNms6Eo GhRFQVE0xTIU6rBhQ3j//QUMHDiUOnVqZ7qttWTJV1y5cgUPDw9atGjBc89NAnAkFTctX76C//73 bfR6Hffeey/Tpk0t8jizsj8tom/3PpZ1D4DVjPmvH9A3yLmapSTEG228fCCadIuKAtSv6MHqXkH4 SPIghChhtx+rExMTOXjwEM8+OzHLsvv3H+CLL77E09OTIUMGZzrBT5/+EgsXLmb+/IUEBFRm+vSX 89z2558vyfRer9fTuHEj/vzzAj/99DMajYYJE8YV4tO5htuMxnnp0mXefPNtIiIiqVatGm+//Ybb jcJ2q+IaSc5y8QfMR98ArSeGXhtQytcu0vLzKybdyiPrw0gy2fDSKazrU5UG/tl36FIUpA1E0ZPR OIuWtIEoWu40GmeXLt3yXGb37tLds7Bbj8b56aefMW3a1Cx1Vbc6e/Yc3367jLlz55RgZKWL7q6+ mI+9A1YjGRu6o5Svg/7+WWgq34fi4VsiMYSnWm6MpqmiURT+1yWwWJMHIYQozVq1aslTT40qc+cv t0kgfHx8ePbZ56lWrRpNmjSmRo3qeHt7k56ezrVrYZw6dYrw8IhMvUfekXTeeHT6FPPBqaimBNTk y5h+HY/i4Yeh3z7QFt/VT7pVZdyOSI5GGjHZVHQKfNWtCh2rOfdYlRBClCVl9fzlNlUYABcvXmTr 1u2cOnWG8PBw0tLSMBgMVK0aRJMmTejZs5tTfZK7UkncfjOHvIstbBe25H8ABUPfX1G8i6+b1MGb wzkSae83QKeBpd2DaBtUMsmDVGEUPanCKFpShVG03KkKA9z//OXWVRgAdevWpW7duq4Ow23oW8yA FjMw7ZuM9dp2rJfWoWsyqVi2NW5XpD15UBSG1fXhxRZ+VPYqvR1aCSFESSqL5y9pDn8H0NSxP4Jk PvcpkPsAMwXRf0M4O6+m2/9/dzlmt6skyYMQQpRxkkDcAXTVOtk7mrIasZz/usjKXXo+ic5rQjkR Y6+2GHivDws6Vi6y8oUQQpRekkDcCbSe6OqNBMDyx1cUxV2IxScTeeNwHFdSrCjAuCa+zOsgyYMQ QtwpJIG4Q+jvexk0OtSMaMwh76GmRYG5YKMCbr2SxsKQeADu8fXgk4cDeaWVfx5rCSGEKEvcMoE4 deo0Tz45hscf7w/At98uY8qUF1wcVSmn8UBX+1EALJfWkPFzJ4x7RjtdzNfnkpi42z4gVqBBw/b+ 1ehZy7uIgxVCiLKpLJ2/3DKBWLDgQ2rXro3NZn8C9b77mnPhwkUXR1X66dvMQfGsCKZkUK3YYk5g vbYT+3BXuTsfZ+LlAzG89bt9TItAbx07BtS40Ym2EEKI/ChL5y+3TCAiIiIYOXK4431MTAweHtLT YZ4ULdr6owDQlL8LANO+iWSsb4ua+HeOqx2KzKDPL+GsuZgCwL2+eg4MrEF5GdNCCCGcUpbOX27V D8RNjRo1ZN68+ZhMJt57bx579uylfft2rg7LLegbT0Jb61EUBYxbg1HNSagZcZhOvItnpy+yLB+W YmHcjihsqopBp6FbDQMLHgpAJ7mDEEI4rSydv9zyNDBjxjSCgoIwGAwcPHiY9u3bMmXKZFeH5TY0 5Wuh+NTC0HcvHh0+BUXBdv1XzKc+zLTc0agMuqwLI81sQ69V2D+wOos6B6LTSMWFEEIURFk6f7nl HYjAwADefvu/rg7D/em80dZ4BG2NrlhDt2O98gv6Zs+TaLKx/q8U3jkSh1UFL63Cyt5BVDJI51BC CFEYZen85ZZ3ILp27clrr/3X1WGUGR5t56N4+qGmXCX+1BLarwrlzd/tyYOvp5bdA6rTtJL03y+E EIX16KP9+Ouvf9ucffXVN4wY8aQLIyo4t7wDcffddxMREeHqMMoOrQGlYhPU8P3ozy6gvc2T7UpH 6vt58G23QAK93XI3EUKIUuOPP86zb99+UlNTWbNmHRUr2vvOOXToN2JjY10cXcG45Zmhf/++zJ// AbNmvUadOrUd0ydMGOfCqNxbyv0fkLaxJ5WJ5T39e4x/qBetqkvPkkIIURR0Oi2XLl0GYOvWbY7p lSpVYvr0qa4Kq1DcMoGYO/d9AA4dOsyhQ4cd0yWBcJ7VprI9NJ0X9yXgafuc/fpBeGKmpb/Z1aEJ IUSZUbduXd599/+YNm0mY8eOpn79eq4OqdDcMoHYvXu7q0MoE8w2lY5rrhGZZgXApq1ASkAXKkTv xBq2C41vfTSBLUG6ixJCiCIxd+4cV4dQZNwygejSpVu20yWxyD8V+zDckWn2wbACvbV89nAglVN6 YIreieX4bFSbGd0Dr2ML3Ym2yoPoGj3t6rCFEMKt7dy5i48//h/x8fGZprvj+cstE4hhw4YAoKoQ GRnJ3r37mDRJTm75lWiy0XX9dWLSzYDCnHaVGFKvPAA2jyYAqDZ7FYb14irUhPOosackgRBCiEL6 +OP/Ub9+PQ4f/o3g4H4cOnSYRx/t4+qwCsQtE4jb2zp8+OFitm/fRXBwfxdF5B6sKvxwIZl3j8ST arGhoDD1fn9H8gCgqXAvilcQWI2opnj7qJ1CCCGKREZGBiNHDiMk5ASDBg2kbdsHWbBgIcOHD3V1 aE5zywTidpUrV+bvvze7OoxSzaZC29WhRN9o7+ChUfj44UC61vDKsqyh725UcwoZ6x4EUxwAqjkF zCmg9ynRuIUQoixp2/ZBFEVDrVq1mDPnPRRFITExydVhFYhbJhCff77E8X+TycT27TsJCgpyYUSl W4rZRp+fw4m+0d6hRnkdCztW5v5AQ/YrKFoUD1805e/GlnQRNB5gM2FL+htNpeYlGrsQQpQlr702 C4Bx40Yzd+77mEwmxo0b4+KoCsYtE4gffliZ6X1QUBWee26Si6Ip3f5JsvDohuukmmwAvN22EiPq l89jrRv0N+5O6LzBZEJN/AskgRBCiEJr3foB1qxZmfeCpZhbJhCFaa2akZHBd98tZ8WKVWza9HOm YVRzmzd16nROnjyFoig33r9I9+5ds5R//vx5Fi5cTHR0DAEBlfnPf56jQYMGBY63oDIsNl45FMsv /6RjttrQKPDf1k4kD4C+5etY/1oBGh2Wv1ZgubIRy9XNeHZekvfKQgjhArkdx2/VvXvvTO8tFgu7 dm3LNO2XXzawYMGHbN260VFOTEwM77wzh6tXQ2nSpDEzZ07DyytrVXBOunbtSdu2D5aJ8TDcciyM wvQlvmjRR3To0B6bzebUvISEBD75ZDHbtm1i27ZN2SYPALNnz2XUqJGsXbuSESOGM2fO3Hx+qqJj VaHDmjDW/Z2K2WrDoFX48dFqPNEw/8kDgKZSM/RtZqOp+hAAtogD2ML3YjkvCYQQonTK7Th+q5vH 8m3bNvH22/+lefNmmebHxMSwceNmvL29M03/5JPPbtw9WIGvbwWWLfveqfjK0lAMbnUHoij6Ep82 zd5lqKqqTs1LSEggICAgz/JjY2Np2NB+x6Fx44bExsblK66iEpVupf+GcGIzrGgUhQ5VPZnfoTKV CzGeheJd5cb/7N+LPJkhhCitcjuO52TDhk306tUj07QPPviQUaOe4I033sw0PSQkhGefnYhGo2Ho 0CFMmzbTqV6Qy9JQDG6VQLiyL3GLxcrTT08kPT2D5s2b8cILU6hYsWKW5Xr16sGiRR8xYcJ4Pv/8 C/r371uscd3q94gMntgeiclq/8N5s01FRjZw7q5DdhR9eVAUQAOqFcs/v6B4VUFTqTmawFaFLl8I IVwlLi6OkydP8eqrMx3Tdu3ajaengXbtHsRisWRa3mg0Oaoz/P39iIpy7oKqLA3F4FYJhCv7El+7 diVarRaLxcKiRR+zcOFi3nrrjSzLjRw5nNGjxzN58hR8fX2ZMWMaAImJiSQkJDiWy8jIQKPRcO3a tULHdi1VZcYpG6FpKjYV9Bp4sb6Gzj6JXLuWWOjyQYem5TegK4fvkafQGGMxn3gPq3dtElp+XQTl Fw1VVYvk+xT/ku+z6KiqSnR0tKvDKDMyMjKwWq1cuXLFMc3Pzw9fX1+nytm8eSudOnXE09MTgKSk JL79dhkffrgg2+Xr1avLwYOH6d69Kxs2bEKjca4lgDv2OJkTt0ogbnJFX+JarRYAnU7Hk08+wVNP jc12ufff/4Dg4H4MHz6UhQsXsWDBQmbOnI63tzd6vd6x3M2s1c/Pr1BxJZpUntkbR6LJftehnA5+ 6lGRKl5F3LzlRpyKf32IOQ6oaNOu4q+NQi3v+kFhLBYL6enplC9f+Dsuwi4+Pr7Q+6f4V3JyMl5e Xuh0bnnYLXViY2PR6XSZqpZvPcbmh6qqbNq0hVmzpjumffTRJwwfPjTHfX/KlMnMnv0ey5Z9R5s2 rfH39y/YBygD3HJPdnVf4larBYMh+z4Ujh49xvTpU9FqtYwdO4bhw59g5kz7jn3rzq3X61FVFR+f gnfMdDrOxNCN4aRZVfQahefu82VSUz+0xTn2VcePQW/A/NtrWK78gvbwZAyP7wJt/lshFwej0YjJ ZCrU9ykyi4+Pl++zCKWlpeHl5eW40hWFk5iYiKqqWRo5OiMk5AQ6nZbGjRs5pm3fvpM9e/Yyf/5C x7RHH+3Htm2bAHsjyCVLPgPsx/uYmPy1vyuL3PIpjJt9iQMEB/ejatUgxo/P/o5AUTlz5iyqqmKz 2fjhh5W0a/cgAPv27adXr8fYt+8AAIGBgZw+fQawN7apUaN6kcdiVWHlxRT6/XKdNKuKVoFPuwTw XLNiTh4ADBVB643mnhvjkWTEkvFjR7CZinnDQghRcLcfqyH7xpO7d2/P9ISGfbkfs5SXnJzMN98s dbqdW1xcyTasL05ueQfCFX2JL1nyFVeuXMHDw4MWLVo4Oq66mVTcNH36SyxcuJj58xcSEFCZ6dNf LtI4tlxJ5T97YzFa7dv09dDwfY9AGlfKoVfJYqKt0hqPDgsxHXgR1ZSE5cJ36Bq4Z29qQoiy7/Zj dWJiIgcPHuLZZyc6Vc7+/Qf44osv8fT0ZMiQwVke/8zLwIFDadasKZ07d6Jjxw5UqpS1Mb67UGKT 0hzPuly+eJ6W97dwZTz58vbbsxkwoD8LFy7Gy8uAoihcvPgXGzf+5OrQ8i0sLAxVValRo0a+1/kj 3kTwhnAybjxlcU8FPWt7B+Fr0BZXmHkyn1qA5ez/UDwrYei/HxQt9sc9i/tWSGZGo5HExEQCAwNL dLtlWWhoKDVr1nR1GGVGVFQUvr6+UoVRRApyDC0Nvvzya44cOcqFCxcBaNq0CZ06PURwcD8XR5a7 Y8dDuKtu5k4R3bIK47XXZtGoUUPGjRtNWFgYly5dctu+xPNr1cUUHvvZnjyU02vY2a86O4KruzR5 ANA3mggaHaoxlvSNPUhf2xrTrxNcGpMQQpRWY8eO5n//+5hVq5YzfPhQEhMTWbz4Y1eHVSBuWYVx U1noSzwvp2JNfHU2iZ8upQBQTqdhw+NVqVPeudbGxUbnhb7BaMx/LIHkqwBYw/eDORX05VwcnBBC lC6HD//G7t172L//IEajkTZtWvPss+45lpNbJhBlqS/x3Cw+ld43D3sAACAASURBVMgHIfHc7FCt np8HvzwahIeudN040jV/GQwBmE/MQzFURE2LxHToJTwe+p+rQxNCiFJl5sxXqVatGk899QS9evV0 6yedSteZKJ/KUl/iOZl/PJ4FIQmoqoqXXsPQej78/FjVUpc83KSr/xReg06gb27vEdR6fTdq8lWs 13aCNcPF0QkhROkwb967NGnSmG++WUZw8GDeeuv/OHfuD1eHVSBueQeiLPUlfjuLCgM3XudkjP2x yFo+OnYPqImmZNskFoxGj7ZOX5Tjs1GN8Rh3DkNNj0Z7zxA8Wr/t6uiEEMLlWrVqSatWLYmKimb9 +p84dOgQkydPccseKt0ygShLfYnflGyy8czuGEKi0km/8ZRFqyoGVvUKKuHnGQpP1/R5zEf/i5oe Y59gSXVtQEIIUUp89tkXHDt23DGidP369Xn6afc8d7llAuGOmVpeRm2P5ES0EbA/APlMM1+m3e+e XaRqa/XCfOxNbjbeUBMvuDgiIYQoHVauXE2TJo2ZNOkZHnqoI4GBeY/yXFq5ZQJx6tRp5s//gPj4 eH7+eT3ffruMY8eOs2jRB64OzWnhKRb6/BJOvNGKAgyt58OkZn7U8HHLnwYARWdAU64GtrQIUDTY Ei6iZsSiGCq5OjQhhHCpNWtWZDuSszsqnS3y8rBgwYfUrl0bm81+hXvffc0dnXK4k+eOWem0LuxG 8qAwubkfs9tVduvkAQCtF559NuMV/DvagFaAivXSWldHJYQQLufp6cm8eQsIDh5M//6DmDt3Pqmp 7lnN65YJREREBCNHDne8j4mJcYzP7k5OxKuYbSoGrcIPvarwUosyNPKhxgP05VBVKwCWv9e4OCAh hHC9xYs/YefOXbRt+yBt27Zhx46dfPyxez7y7paXuo0aNWTevPmYTCbee28ee/bspX37dq4Oy2nB NTUcS9Cw8fFqlNO7ZS6XJ13D8Zgif0NNvYZqjEPxLBu37oQQoiAOHTpMcHA/R6N/X19ftmzZ6uKo CsYtz1ozZkz7f/buO0yKKmvg8O9WVXdPhhlgyDkHRRAJorJINKwKogIGFN016xp3/dbVdXXNATG7 rgnXhBgRUAQUFBNIzkiGGSbnTlV1vz9qaBiY6elmBnoG7vs8PtJdoU9V11SdvnXrXJo1a0ZcXByL F//E4MGDuOWWG2MdVtRu66rx7YWtjtnkAUBvfjpa89NBmpi/3h/rcBRFUWJKSokQ9e3ZusrVyxaI 9PQmx3wVymOJ3uxU7IyFmLvn4ZJW+YBbiqIox5/+/U9hxoxPKCgoRErJvHnzGTFiWKzDOiz1MoHI ysrmuedeYMWKlQD06XMSt9xyI40aqV7+dZHRdRLBlc+A5ccu3IzWsGusQ1IURYmJW2+9CXCGBdc0 wYgRw7jhhutiHNXhqZcJxKOPPs7atesYNuxMpLT55pv5+P1+Hn3037EOTamM0DHanYf5+3TMDW9B 6W5cpz6Jf85YjM4TMHrWz4FkFEVRopWcnMy9994T6zBqRb1MINauXceFF47hT3+6GoAGDRry6aef xTgqJRyt5XD4fTr2lhlIJHL+FUjvXoIrn8XK+B7P8HdjHaKiKMoR8eqrr1U7T32spFwvE4j27dtV 6IRi2xYtWrSIWTxK9bTkdgBIyqtThspbS+zsJUhvJiK+WWyCUxRFOYLee++DaudRCcRRctppg3nn nXcpKirGsiy++WYeAwcO4D//+S+yvHxyffwyjmUipT16qxEI3YO5/UtkqVOlUriSkYFCsMxYh6go inJE9O59ImPHXsAZZ5we61BqVb1MIF577XUAvvhiZui9hQsXVZhHJRB1j/v0FwCwcpYjS3chktuh JbbEyliEXbgJPalVjCNUFEWpfWvWrGXAgP4ADB06gpdffoGuXbvEOKqaq5cJxLE4mNZxxdMASnch XCmIBp0gYxGycBO0HBrryBRFUWpdWloqn332Bfn5+QB88slnpKVVHCyxPv7orZcJxA8/LObZZ58n Ozu7wvsqsagfPKc9h7n1U4wOY7EzFwNgF26OcVSKoihHxiOP/Jtnn32OGTM+AeCrr74+ZB6VQBwl L7zwMn6/nwsvHFMvx8A43onEVrh6Oc9CiwadAZwWCEVRlGNQhw7tefbZpwG44YabufXWm9UtjFjJ zc3lsssmcvnll8Y6FKWGtJSOgMAuWIdv+km4Bk9Bb/GHWIelKIpyRLz44nOxDqHW1MtBGAYNGkhG Rmasw1BqgysJhAbSRpplmGvr56h0iqIox5t62QJx++23ct11N3LzzX+hSZMmoffvu+/vMYxKOVx6 ej+kvwC7cBN2zkpk8XZEcttYh6UoiqKEUS8TiEceeZyMjEz8/gDZ2TmxDkepIfeZ0wDwzToHWbiJ wLwrcI94D5GoioMpiqLUVfXyFsbSpb9xwQXnMWPGB7z//juh/2rD/PkLuPLKaxg79mK++25hxNMO 9sUXMxk6dASBQKBW4joeuHvfCWjY3gz8cy8COxjrkBRFqWd8Ph+vvfY6w4ePrvb8W9U5PScnh7/8 5Q7Gjr2Y++57AK/XG9G0SDz55NP88suvFBQUcs0113LeeWP55pt50W1kHVEvE4gePbrjctX+0xcr V65i+vQZPP74I3z88YcVqoaFm3awnJwcvvxyNgkJCbUe47FMazkU95lvAiB9Odj5a2MbkKLUF6YX 6c+LdRR1wtSpz3PaaYOxbTvsfOHO6S+++Ar9+5/CRx+9T4MGKUyb9r+IpkVi/vxv0TSNt9+eRlZW Nqeddir/+c/r0W1kHVEvE4iLLrqQ+fMX8PDDj/Lqq6+F/qupTz75lGuumUx6utOv4sDxNsJNO9gz zzzLFVdcrlofDoPedCBG+zEgJYHvb451OIpS58mS7Xg/6ovv8z9AsLTa+Y91d999J926dQ0Na1CV cOf0ZcuWMXr0SDRNY/z4S/juu0URTYuEYRjMn/8tX345m0svncDo0aPIzc2Nah11Rb3sA3HvvfcD MHduxWafmhbiWLNmHU2bNmXKlKl4PB7+/vd7aN++XbXTDjR//gI8njhOPXUgprl/fAfbtrEsK/R6 3799Pl+NYj4mdbsOtn2CLMvEu+1rRLMzql0kGAxi27ban7VM7c/aY9s2gUCg2gtb1EpyQVpgWvhW PA297qrd9ddRtm0jpSQY3H+rU9d1NC2y38Xhzul+fyBUYyg1tSFZWVmh5cJNi8Rll03kjTfeomfP HlxwwXl8/vlM2rRpHdU66op6mUAcqYqT+fn5pKamMm3am8yePYepU5/nmWeerHbaPkVFRbz11rRQ wZADFRQUkJe3v4nRNE00TSMnR3UCPZSLlOReuIpWU7b7F7xGj4iXVPuzdqn9WbsKCwtrfZ3unA0k l/9bbppGUVxfgg171/rn1DU+nw/Lsti+fXvovbS0NNLS0iJaPtw5vUuXzixe/BMjRw5n5sxZFZKS cNMicfHF47j44nGh1xdddCEXXXRhVOuoK+plArFy5SqeeuoZ8vPz+fzzT3jrrWksXfobU6c+U+N1 n332aMAZ8fO5516MeBrA88+/yMSJ42nYsOEh0w4+sHfv3o2Uklat1ABSlbFdd+OffwWJe2eSWPIb rt63ozc7rcr5/X4/hYWFpKenH8Uoj207d+5Ux2ctysrKokGDBng8nlpdbzA/GxOckW2DxTTSdmC0 OqdWP6Muqo1zaFXn9FtuuZGHH36MadPeYcCA/qSmpkY0LRJPPvk0Z5xxOl26dOHOO+8mKyubW265 keHDhx32dsRKvewD8fTTz9K2bVts22kKPOmk3mzcWPNSyOnp6RQUFADOBenAP/Rw0/aZO3ceTz01 hZEjz2bkyLMBOPfcC2oc1/FIS+8Pmgvpz0PmrcZc/kRomvRlYf0+HajlpmBFqYdkwXoAtPIKrrJk VwyjqT/CndM7dOjAa6+9wrRpbzJw4AC6desa0bRIqE6UMZaZmclll00Mvc7JyamVMTGGDz+TDz/8 CNu2+eqrufTpc1K10xYt+p6zzvojixb9wIIFc/n661mh/wBmzvy0xnEdl4SG1uhERFwjEDp2/nr8 C28guOpZAl9fTOCXvxP45R+xjlKpdyTW3u/xfzUGO3dlrIOpFXb+OgD0NqMAsLJ+iWU4ddaB52oI f77fp7i4mDfffJsxY86Palo4x1InynqZQPTo0Z0nnniKQCDAY489wZNPPkP//qfUeL0TJlyC1+tl 3LjxLF36GzfccG2106SU1T4upBwez/D3iBvzI3rbcwGJvfsbzNUvYHudTkt2+S8vRYmItPDPHEVg /mTsvDUElz0c64hqTAaKkKV7QI9Db3Emwp2CLN6OLNkZ69DqnIPP1eHO999//wOTJk3mjjvuZsyY C+jd+8SIpkXisssmsmDBt6FOlBs2bKy3nShFblFZqB1466b1nNy3TyzjqdLQoSO47LKJXH31VWRl ZfPccy+wYsVKhBCccsrJ3HLLTaSkpMQ6zIipPhCRkwWbCfx4B9KXg/Q5Q7gLoSOljWvAwxgdLlR9 II6AnTt30rp1/TyxVcX34YlIy3myRCS2JO68BUfts49EHwhz1bMEV78Auof4ccvwfXo60p+L0Xki rn7/rLXPqYvUOfToWvrbMtp37lbhvXrZiTI9vQkPPvjPWIehHCWiYSc8Z32GLNmDb+ZQkBKSWkHx dqy1L2F0qJ89mJWjS3r3Ii0/wp0MWhyydDd2zm9ojfvGOrSoyUAR1vo3Ca51Ov5pTQeAZqA1HYi1 40usvT/hinGMSuXmzZvPCy+8TH5+foX3j9TThUdSvUogvvxyNj/++FOV01977ZWjGI1ytImkFrgH PYW191f0NiMILJiMDKjCOUpk7OylgERrcgrYJlZGNoFf7yPurJmxDi1qvi/Pgn2tcYkt8QxxCum5 BzyMN+NbZNFWrD3fobcYEsswlUq88MLLdO3ahZ9++pmxYy/gxx9/4txz6+dTM/UqgcjPzz8ka1OO L3rbc8v7RICIT0d6s7ALNkK8Gr1TCc9JIHBaHPQ4rIyFSF/967xmbnoPfDmAQGs6AM9pz+6faMSj NeyOnb0Ec8WTKoGog3w+H5ddNoFly5Zz0UXjGDRoIE8/PYWJE8fHOrSo1asEYl8fCEUB0FoMwfp9 OvbuedBpcqzDUeo4a4fzZJTWpB/C04AgINwNYhtUlIK/T8dc8gAgMbpdiavP/x0yj972j9jZS0J9 PZS6ZdCggQih0aZNGx555DGEEBQWFsU6rMNSL5/CUBQALdWpUBlc9Sz2rDMRATWYkFK54M9/29/a YHgQCc0BgSzLiGlcEbMDWJk/YP5yL2Aj3A1wnXBbpbPqLcpLv1v+oxefErF//OP/6NGjO9dccxW7 d+9my5YtXHNN/fwBVG9aIOpjBxPlyBINOoHQnXEAfNlogYJYh6TUIYFFNzq3LaSFDDglpPUO49BS ewI4jzwGCpH+AoTn0OqxdYW58S2Cy55AbzkMkIiEpsSdMxeMuErnFwnNQY9Dlu0FswwMNSpwXeSM 6PlBrMOokXqTQCjKwfT0AcRfsobAwhuw9sxHy18KDIx1WPWef96l2HmrcXe9D+rxY5x21q/IfUml EOitRuDu/2Boukho7iQQZXvqbAJhrv8vweVPgLSxds0BwD3o6SqTB8ApwpbcFrtgA8FVUxGeVIwe 11Y9v3LEDR06otp56uOPZJVAKPWb0NDbnYO1Zz5GzmLgxlhHVO/JvDVgenHl/4q5sQyj0yWg1bzS 69EkvVnIYBFoLrS0XhhdJ4cqNe4jEptDwXrnNkZq5AO2HTXBYoIrngRpg+YB2w9GIlp69UXzREoH KNiAud4pkayl90drXDdr/BwP3G43gUCAnj17MmjQgFofDyVWVAKh1Hta89MBDT1vCfgLoI7+mpRl ewn+9jBawy4YvepmoiMLNyPNMgA8uYsJ7vmY4G8PIlwpxJ33HbgSYxxhZMytn4K00VsOw336C5XO IxJaACBL604/CJm/jsAv/8B1yj8hUAi2hTDicJ06leCPd2J0vzqi9Yjk9hXfMNXjzrH00Ucf8M03 85g1azbTpv2P008/jdGjR9K3bx+EELEO77CpBEKp94QrxekYZ3rx/XQX5K/DaPtHjD5/jXVoFVjb PsXaORsr87s6m0BYO2Y7/9BcaP5M59/SKVwUttm8jjHXOXURtLReVc4jEpoB1KmOlP6f7kYWbMA/ 7wpEYlMAjB43oLf8A/q4JRGvR0upmEBYWb+ihRnNVjmykpOTGDPmfMaMOZ9NmzYza9ZsHnjgQeLj 4xk5cgSjR4+iZcsWsQ4zauopDKX+Exp0cXoxy4xFSG8W5qZ3nM6VdYle3mxpekMluesac/1/ARAe 5/FGEZ+OiHfKg8vSPTGLKxp2zlIo7/ugt6t6oCORWN4CUVaHtsssf/TSLEEW/g6A3nFc9OvZd6wJ 5xRvZ0eefChHVufOnbj11pv56KMPOPXUQbzzzrtcfvmVsQ7rsKgEQjkmaN2uQ7oaOveLhUBaAWTx jliHVYEs3Fz+D4m1a35sgzmQtAgueQAr83vn9oUAo/ufkXoiRo/rQ83hsqRu7c8DWbsX4F8wGTt/ DcElDwBgdLo4lCRURsQ3Bsr7fNQBduFGZMl2pzaFKxmR0gGt2WmHVatCS2yN8DR0+kIIHTtnOai6 EHVCfn4+77//Iddccx0LF37P+PGX8Pbb9XM4b3ULQzlm+LreTsL6x9Aa98bKXExwzYu4Bz0R67BC Dhw91NrwBkani5EFGxEp7WPaSTHw/c1Yu76Bbc7Q81rzIRhdryQjYRitW7dGFqzFzvoZu3g7WrPB MYszHHPFk9iFm/DP+T70nt7tT2GXkUEvAHbJjvLEM7a/p4JL/gWA1qQv7tNfqlE8Iq0ncWOdYb19 H56AtPyYW2ZgdL60VmJVomPbNj///AuzZs3hl19+pW/fPvz5z1czaNBAdF2PdXiHTSUQyjHDbHom cSeMx9z8HlbmYqwdX8Kgx4E60ElJWtgFm5yLgrSxi7bgnzMWO38NevsxuAc+FqO4bOyCDc6/g07n SaPjxRVmEUltnFnrbAuERPoPKCKmu9Fbj0ZLbhN2Kb35GU6NBLPMGVSrSb8jHGd4MneFE1fjfrWa zIiGXZG5K7GzloBKIGLi4osnkpubS8+ePbnmmsmkpCRTUlLK3LnzQvOMHj0yhhEeHpVAKMcco9Ml BH97CKwg9q4FaK3OjHVIyOJtYHkRSa1B9yALN2MXrC2fGLu+GoFf70OW7AQjHkyv81hs84qd7Wqc QJhefJ8PAdvCc+5XiLjGNQ07xD9/EuhupC8XkdgSo8tl6C2HI5IjGBtFMzC6XIa59lWsHXNimkA4 I4UGQPegd728Vtft6vN/+L8Zj51fN27VVMbOWY5//iS0pNZ4zq5/g5tVJzfXqYK6Zs0a1qyp/HtQ CYSi1Akarp43EVz5DOaGN9DtAOaKJ9A7jsPocX1MIrK2O+MwCCMR9+kv4Js5wmk2B6eaZoxYO78C QGs6EDtjcajn/4FEcg0TCAHSX17QyQoc3joqYeetwt77Y+i13ux0jG6RPebot0rxBYuwGp9APGBu fp/czmPYW7qRIt9eDN2D20hCCIFLSyBOT8Iw3DRJ6EySuxEAUtpYMogmDDShE7DK2Fu6kWL/Xgq8 u/DoyWi6QW7JNnxWMXj9GLkuiq0iLCtAclw6aQlt8WgJNMleQ2MkRantWbbrf1jSxG0kELC8lASy CJhl2LYNSGxMNOEixdOEZE86hojDlhYSSVEgk0JfJgGzFFuamDKILgXnGnG4i7fxzZKryXEnYEk/ EjCEcwkQQuDWE0gw0kiJb06rlBPQRRw5ZVspDeTgNQspC+YRtHz4zGKS3E3o0vgPJLkbUxrIJWCV URzMoXF8ezo3Oj20j7fl/UKebzu2bSKEgUvzkBLXjGR3OoX+DEzbS5zRkKRd82hoebFLtrMxewF5 /l24hIdEdyPapZ5CnJFS4fuT2BQGdxKwS2lFqxofS0dafSwSFQmVQCjHJL31WQRXPoOV9TPS8mGX 7ERu+bhGCYSdtxatQcf9Pdwj4c8HTyrm1hkACE8KIrEFWuM+2HmrwAo4LQAxIL1ZECwB4cIz4HHQ Xc62HZTQOC0QwukrgCSaW0K2NDHzVu9/XfQ7epUdGyWWHcBrFrMl7yeK/Vm4jXh8ZhFCamiaTqK7 EXGuFHJKthC3bQ49KA9Hwk5zL3t2vEZOye/4rVJM20/AKkXDQGIhhIaUNqbtx96XvAGXItDsAKuX 3MKW5NRqt0kAsvwzndcCue9FFToW5XFq1i68uouP2nd3trZ0Byet+ZgNDRvRrKD8F6pWwuas2dXG AJBdujmi+QB8wsYNdN2xlC2tO4WZcysUwqrMmbhti6F7tpGoaSxo3g77gHoFxf4sMoor/yW9YMuz Ee2TAw3I3kNDwLYDfLutYt2OhdteQiAQQkcgsLBCybchPJzUYVjEn6PULpVAKMckkdIOEd8U6d2L nb/OedP0Elz2CNgmrpP/EdX6zLWvElzxJFrjvnhGvEekF1HvzOEI04+0A+BKwtXvfhA6nmHvIEt2 4Zs54ognENvyf2ZH4XIM4SbelUJpIJfssq1037OCttIiv1EnVmXNxJQBin17CdheNKFT7M0lmFuC S3PzRyHQTB+Lll7HLpfAsi2ktLCkhS2D2NjY0kJI0DQDlxaPlJKAVUynwrxQgfGf1tzH+owWSNsE IRASJBIbG2TkFxyAMdnO97o8rRmN/WUscOXC3jlR75+s+ESaeUvQpcTQ3GjCwJRBsG2E5vRFkNJG Isv/Tyh5cFkWo3ZvQQJft+yAqbvQhI7QNGzbAmzcehKp0ulf4rItkj3NSHQ1oNu2RaT5vQzauysU S9CVgFtPAASW7Qeh49YTcOvx6OhYBLGldJ6ckX5MOwjSRu67oGoeElxpeIwkNKGhCZ2gHWBHE5te e9bQ2F/GwCIfW1v0xqXFIXG2y7QClAbzMW0vtgxiWgHiTYt0XykScOuJGK5E3FoChu6i0JeJMEvQ TBOfOw4pQRMalu20MO1LHjShIdBxCYmwBUFdw7ZNJ14hEGhIbJp6nUJXmpTEWzZBVzwAtgxgS1m+ 780K35smDBp5ukb9fSu1RyUQyjHLfcbz+L+6COwACN2pD7H+TUA6nezClAS2MxaiNXdGNbS2fY65 eqrzfu5KZNFmREpn53XeKrTkDpi6gZQSy/bjMZIQQncGMwqU7D+ZNh2ASOmMlBYFvkxc7jg0zQBf FrPW3UeJWYCUEk1olJkFoV9chubBrSfi1uPx6EkgBEHTi4WJQGDbfk7evJDN6Z1pWbiHJkUZfNGx L0FsTMsPB/0SdNsWAU1neO4WAHbb+SzP/KTKfWHaNpYATUK/TQvwNm3DtqTKq31KwLKDWHYw9F5a YP/jgw19ZVj7RomsMl8QCCEwhIfkQCmDM7awNbkR69KcehS2tGnrLSUpGAQB29N7sMEuw1W+dJye gEt3LsRpCa1DH1UWKEAXLto27Efb1L649SQA/ClvYv/2MIOT+jP05Eer3A/gJBL5vt0IBC4jnviS LAJbnVoTl3d5CCOt50EL2CBtAr/ei5W9GUNKxnf9F8KTRiDjCiwyAeF0/Gw1ilGnPsER6fTbHQI/ 3IK1Yw6dszdzQr+nEQ26hF3E2vsjgR2TEMDEuIFYu+biPv2FUAVP36yzkUVbcJ14G0bXK0Mtc3tL 1iOBFE9TElypIG38s89BFm3FNXgKeuvRFT5H+nLwbRoc6mB8aef70Rr1Dk33W6XsKlyG2Po5TbYv IH/QQ6Q1OpnCbD8yyqRTqV0qgVDqpWJ/NtsLfyVo+bDsAIGAD2HFUebqABKyvJso8edwiuHBMP34 DTeeoJd9V63Mtc+wzXcmpuXHlBY+s5CAWYKNIK0sjwGbvsXUDbakd6FNzlbirACW0NGlSf5XF/Bx +14M3ruDdkW5ZMYnMbdlBwAaB7y0K8rHFhpBoXESklKXG922meXKxLdkPNYBv6TO13VSgibF+cso dIW/NdIg4CfDfeg8/XL20Kg0h7StOYjy9vxTdq1jYXOnI6FAoGseNE2jaXEOQ3ZvpszlwbBtbGBT k7bOiUAIdKGjCReGcCFsN6lJzSkL5jG/YyJnbFtBfNDHiSU+aN2foOXFpSfSKL4NyZ4mJLvTCVhe CrK/J3nnd6QV7iDQ/18kF7wB5ADQSiZwcquLSDQaE7DLKA3mk+xqRKOE9jRJ7IBuBQnMGQMyiGvo NIKLb8f2l9HHkpw6fG7o6YTAr/djsREtpSvjT3q5JocSrib98ON05KuOEBpp8fsHGDPz9veil+te g4GP4p93Oa4+f0Vr0pfAouuxMn4IFeYCiZ27Cr1pf6ycFU5r1JlvIpJaIRJa1mg7quMePAV/zpnY ZXvwfXUhced9C969iNTuVJa0hOqWAME1L4PlI/jT3zD6/A38RVC6C6RNcMXT2EVbQk8SNdrxLebq l3CPmg4NUsEOYhfvKB8QbP4hCYS55mVAOuN9WD6Cq5+HskwnWUlqg0dPpGODk/H+fj1Yfpqt+x/u M0dRyO4juLeUSKgEQqkRicS0/ZQFC4jTE7CwCZheQANp4bUK8QcK8FtlFAWy8JqFYEsCthe/WUzA KsMXLMYiiEBDFwa2tPBbZUhpo2sGUtoELR8IEbr3WdX91VX5FV9705vRtSCfrIR4+uQ4z/1LIUjN WMIPRiH5nvhD1tE90+ksaFgmnTPWEih/TvuHpi05PXMH8WaQZqVFNC0rAiA56Cc56Gdw1k6aeMtC 67HKL3YbU9JYnZpevsMqNsOWuj2kBP00tt1oca3QdBcaggbxrdGAEn8ufquUflsXk16czcZGrVne pA0CgSYMdM2gkeWUYhblewYEbUuLGKq1R7Q/j05pp4c+L7jsUUw2kxh0WgE8fe5hYrerKt2XO3fu pPUBo3HaHdbg/2oMDYNBRna4DTTXIctIbzZNf7scWf5k2EyG8AAAIABJREFUSfzGD7ELNjvRCYG7 NJMe3z+Mq9/9GO3HAILA0gexdjyEacRjNx+KXbITkAR/ugs7b2X5zvQjyzIQic5FVpZXVnT1rXm5 ci21O+jxyKKtyEBhVIWb7N37EgiBueNL7NKd2LkrCSyYTNyFv2Jn/gR2AOnNdmp92AGnFcu7Fywv WqPeaOkDarwNkdFwj/4Y38eDwPLjnzsBWbINvfME3P2c4lvBZY9j7pyN5mlYcdyT8lYjK3sp1pwx 4E4C0w/CAGk6TxkBwZVTMNe8BEgCP95F3OjPsHZ9DXYQEFg7vsDueS1aSkdnvXYQc/sXzh5MaI4s 3oqd+T3YFtbv0zF634G55kWsrZ/ujyFnGbJ4ByJQBLoaqjyWVAJRj0hsdhT+RlbxRnxWCabpJWD7 0BC4XYl49CSK/dlIbOJdDZzmcDRcRgJCSoKWH7TyE7kWjy2DZBSvo9ifhW1b2DKALG8+FuVFSp1e 5m50oeFcomxMO+Dct7aDSCGivncdDdM+4MVBH6MLV3lnNhmawUY69+GFgaZp5KQkkp/Shi4Fe4G9 2ELDr+vEm0H65+7lu1Y9sIVzr3bA3u00LisgLug0ufsMN3FmAI9lUeZOINB8MHsDGs3ytjE0aw+a GQShkWiaXLDzd7Cd5EBocUgZRC+/iA485WX6N+hETtlmMks20DSpK82TemBLC2vpg5ib3mVI+nkY XSYdsOGl+Odfid5qBFqrYQTWzEYC3UQjep/0mvPop+bGyvyewJr5oHnQGp+EMBKQ/hzs3FW0ztoA 227DJwxEYguMPn9FxDXa/xlCQ285JOLvQkvriUjugCzeQnDlU7hO+luF6dbWTwku/aeTPBgeMIPY WT+XjyZZ3kEzWAKmF3PtK5jLn0RL6YCVvxqCZc7tj03TQuuzy0tni5SOyKLfMTe9i9Z8MNb6t7AL NyFciWhNB0Ucf5WEDroBlsTc+DauXjdXnC5tZOFmRMMuWNu/xM5egqvf/cjC37H2LAShIeLSkN4c 7PIOo9Ly4ptzAdLylie+EhnXBFG2G5m5CLNgY/lOPbrFq4QnDa1hV6eoWfkAWzJ/HUgL/7zLQyWv 7dLdYJQnEPv+xt3JECh23gs6/9fS+2Hv/ckZKG7D66HkAaEh89djrvsvwfJxSXAlQbAY/+xzcXWd jHHCLQQW3wb+fLSktuhdLiW49CGwnb8ba/d8aNCF4MopB8TfCOnPxb/wz6RIFxIN2nx25HecUimV QMTQr3kv8WNBGaWB3FAHLXCaSUFgyyBSWuXXTemchGIQp0WQYFUT9128q0wkNLTy1lGBhhA6mmag CVd5c7mBW48n3pWKJjSCtg+BIE5Pwm0kOyMqGh4aJ3REQ8O0fTSIa05qXGviXft/Kfr9fgoLC0lP T69yO8z1/0U06Eq8EY9/3uWklxUxMW4gRs8bAPDO6AcB56QqPGmkDHiEwMJrAUhpP44/drsX2aEI 38enoJlOa4aW0ha7cCvYJkK4MPrchdH1Ssz1rxNc9iggEAnNMTQ3zZJ60Cxp/7DRmtAxy8c+sHbM rpBABJc/gZ27Ajt/DWLjO06NACGw81bj/bA3wtMYrfmpyKItgI1IaolnmHPxlUVbyu9Pbw4lNdKf R2De5WiNTgTAaD8Gkdodkdyhyv1VGS21O1bxFqytX1RIIMy1rxBc8VT5F63jGfEhwR/vwi6/UIrE FmD6kMESJ57SPWD5sXzOrQ2R0Aw0F7JkJ0IznE6WvlwnyelwAebyp7A2voW1Zfr+R0Ljm9baI7Ba 2onYmT9grX8dWfg7Ir4xrr73Otv2+wyCv/4dkdQKWbIbkEhfNtauuc4xr7lwD3kd/zfjwSxzkglf nrP/AZHYElmyC6m7EYBVfqtEuBvgPvmftRJ/VNva5GTsgvXIgFN8y85dReDbP4WSB9GwM7JgM5hl OC1HOkgTV+fLCK79DyK5NbJoKwB6y6HIgo3Isj2Yyx4DJFrDLoj4plgZiwiuebE82RC4+t2PufSf yEAJ5sa3MXfPRxY5432I5mcgktsdEKSBXbgJubS8OmdKZ/TO49ES2+BfeC2yaCs6Eiu+7j/CeSxT CUQMZfs3RL2M03TtQggNIQhdiG07iImNhsB58N4u/3UjsSzn8u8soyMk2JiAwNDiaJzYniR3KvGu Rli2n9JAPghI0BviNuLxmoWUBLIxbYt4VzIN3C3wuOJJjW+LITx4jERSD7gvXFcdWCNAT++PtXcx 1q65WDkrEEktyx9p1BC6B73tuegthoDuBiuAKE9WhDsFvfVIwEBr1Av8hdiFL4Nm4PnjN4iE5s76 21+AtXs+IrkdwlP1o4EivgmAUw0yUIgMliESm2FnLnZmsE2k1+loJxp0QZZXjZTePVhbPgqN9WB0 Gr9/nSkd0Bv3xSq/IBgdxmHungf+/NDFV2tztrN90e7DXtdh7ZjlXFykFbqAWzu+dD47uR3u055D a9gV12lTCcydgNH3/zDanR8qZBRc8sAh/Q2MbldjdJ2EufFNpL8Ic/XzIE201J64Oo7HWvmsk0RZ AdDdaGm90ducHXX8VfH84b/4vhiKLM3A2jELYSSEEgg7cxEAsmT/0xLW7nkgJcKTinHSXWip3XD3 +SvB3x7FPfhZrF3zMDe8BYB70FPY+WvIj+tD0uKLnBUIDdcZL5X3Pzi6tNTyJNa2EHoc0vJhZTol wF29bsI44Rb8X12InbcK4U7GfdoL2CXbMTpegtHzBuzclfjnORUttSb90Joud0ZxlRIR1xjP6M+Q /nysz4Y4f1OAln4KRrvzMFqPwvfJQGSwFMqTB6PzRFz9/lGeDJfHGN8Uu3Q3MlAImgvPyA9Dt1T0 dudgbfsChEZJ9/tJOlo7TjmESiBiqGncifhFHi2SuuMxkrGkScAqw7ZNPEY8Ce7GJLrSkIBLd5Oe 2IUEV0PqRGnmes7oeT3W3sXgzcU+YDAlveUw3Ge8tH++jpdg5y5H7zwx9J578HMHrEliF23G6DQh lDyA04LhGfZO9XF0vRJr83vIQBG+L0Y498Vbn4VdvG1/dUjA1esGhCuZwLJHndEx3Q2QhZucoah1 D0anSyquOLElZC9BJDTDNeBhxKb/EVzyQKjks5Z0eAmf1qArWoNO2IWbsLOXoqX3J7jsEez89QhX EnGjPnaaqgEtuQNxY3/ev2yq84SCSOkIOctBj8N96hNY22ZidHVaX4wuV4JtOh3rpOk8KeNugPvM d/DPmwBS4up5I0bPWi4IJjSM7tcQXPYYSAtpepGlu53WA+/e8nkEQvM4t2jsICKhGXHnLQglUXqn CeidJjjbmj4AvfN47J1fozXug9a4DzIrC+2CZXg8HgiWVuxjcBSJA4Y419J6YGUvAyMOvcUQjBNu Lo+/P3beKuc2aNOBaE3LH8TVPYiGXcu32UYYiYj48uJjQsNz5tsgdERcY4z2YzB//xAAV5+/hZY3 uk4muNr5G9Lbj8HV75/O4on7/37cpz2HmbcKa+0r6K1HVdhX7oGP4ctbS2nj4ZiJHY/AHlIipRKI GDo5dTKtWqkmuFjQmvQFPR5738Vh3/stzqjwuvp6EQL36S8edhwirhF6u/MxN05Dlg9BbZUPaqU3 6ouV+xtoLvRO4xHxTXHFN8NoezZ25vf4F0wGKdHT+4NesTOoe+CjBFPaY3RyEp/Qr85gqdPKknj4 Pf61FkOwCzdhbf8Cu2AD5oY3nPebDQ4lD+EYnS7B3j0PvfkQ9Faj0FuNOugDDITuRppmqPVGa9IX V/+Hsff+WPvJw764Ol+O0WkigcW3Y+2YjbV7Hnq787FzV4LmxnPas5DQEmvDm5g7vsDV/6Gwt1C0 5A5oPa6rfGKMkgcArUHn0COTWoexuAY/F2oJ28foeBF29hL05qcfsrxwpxB39pdOopDcFi2tBwgN La0XosH+IlWiYefyf+hoDbvtf7/RvgRG4DrxjtD70vSWH8cWJLXGldYLV3lCVjEAg7hzZpO7e/cR 7X+lVE8lEAfw+Xy88867vP/+h8ya9Tlud8UREufPX8Dbb/+PoqIibr31JoYMOeOQdeTk5PDQQ4+w Y8dOevXqyT333E18/KE9/ZUY01xojU/aXwpZ08G20ZLaHfVQRKg1QJTf/w+iNe6Le8jLTic8ROjJ AKOt02yvNT3VOdla3or3jkMr1XGV9+0AnBO40EFaTgtGNNU0q4jX3Pwh5ZWgEKk9cQ9+NqLltUYn hUaKrIrR62bsvJXoHS7c/16HC+GA10eE0NFb/gFrx2zMda87Q2BLC63RCWgtnYqH2oCHcZ3yQI32 YUxpRiiBEEbKIckDOLfBPCOnV7kKkbK/74ze7gLiW49ynsg4gNFlEvjyEGk9nc/cN3+Lobj6/A2R 0ByRsL/PkvCkEX/xigq3xg5HdefxA1V1Tr/zzr+yYsVKRHn1zTvvvJ2RI4cDUFJSwj//+SDr12+g d+8TuO++e51WpeNQbMevrWOmTn2e004bXF5zvqKVK1cxffoMHn/8ET7++EPOOOPQzBzgxRdfoX// U/joo/dp0CCFadP+d6TDVg7TvkfJhB5H3DlzcA95Ba1ZLfTqj5LRdRJaag+MLpfjHjUDveUwPCPe d5qL3Q0rf6xQaGgNu4Aw9rcuhP2Q+FBTc00Hs9Kbnlq+Did50FJ7EDfifWpzBEmj+9W4Bz/rJDtH mSi/1SLL9oT6MVR4ZFVo9Td5KOcZ9g7uwc+gtxld/cyR0OMrfazXOPE29FaHDhJldJuM3uasytdV w46x4c7jBwp3Ti8oKODFF5/j669n8fXXs0LJA8Dbb79Dy5Yt+OyzGaSmpvL++x/WKN76TCUQB7j7 7jvp1q1rpdXNPvnkU665ZjLp6U62LkTl/RCWLVvG6NEj0TSN8eMv4bvvFh3RmJUaMMpbhtwNEElt 0Vv8IUaBCDyjP8V18r1oDbtV6IMRjmfE+8SPX1PhV3pY+35p1vDiJ5LbEjdmMe7BU3H1+yee0Z/W +wvqgbQGXRCpTjO79OaAMHCdeFuMo6pdWuO+6G3OiXUYR0S48/iBwp3TCwoKaNLk0JYZgF9++ZWz zz4LXdc599yz+eGHHyud73igbmFEaM2adTRt2pQpU6bi8Xj4+9/voX37dofM5/cHQk1mqakNycrK AqCsrIyysv1FhkpLnccFt2/ffqRDPy7Yto1lWXi93oiXEQ3H4jqhO5anGdZx8D00NAVuIOArIzOC 7fX7/dUcn93BDRyD+05vdweN8icDEm+T4WSVNanxdgaDQUpLS9GOcu2HY5XP50MIQU5OTui9hIQE EhIiKy4V7pxumhbXXns9Xq+P3r1P5LbbbiEtLQ2A3Nw8mjVzWvOaNWtOdnZWbW5WvaISiAjl5+eT mprKtGlvMnv2HKZOfZ5nnnnykPm6dOnM4sU/MXLkcGbOnFXhZHFgRiyEwLZtVcu9lkgpsSwLw4j8 kJbo+JN67VvBEYqs7ihu+2fcxasJpvSO6LizLOu4PT4tTzNsV0O0YD7BBn1qZT9YloWmacftPq1t +1oMDnd/hjunz5jxAbquY5omU6e+wJQpz/Gvf90PgNfrDfV5iIvzUFJSWgtbUz+pBCIKZ5/t3C88 7bTBPPdc5T3vb7nlRh5++DGmTXuHAQP6k5rq9CI/ODMWQiClrLKZTIlOWVkZ2dnZtG3bNtah1GHt gOHVzRSybt062rVrd6SCqfvaO4+g1lYX6O3bt9OkSZOIfyEr4eXk5NT4HFrVOV0vL19vGAaTJl3O lVfuryGTlJSE3+8nLi4On89/XH+fKoGIUHp6OgUFBSQnJ+P3+6vsdduhQwdee+0VAJYsWUpOTu7R DFNRFEWJQKTndMsyiYuLO2C5Juzdm0WDBg3IzMykUaO0oxVynaNuxkVo+PAz+fDDj7Btm6++mkuf PicBsGjR95x11h9ZtOiHCvMXFxfz5ptvM2bM+bEIV1EURTnAwefqqs7pAKtXr0FKiW3bvPfeB5x6 6sDQtIEDBzB79hxs22bWrDn073/KUd+WukIlEBGaMOESvF4v48aNZ+nS37jhBmeMhH0H2T7ff/8D kyZN5o477mbMmAvo3fvESteXkJBAYmLsiskca1wuFw0bNox1GMcUdXutdjVs2BCX69BHHZXDE+05 9OBzdVXndIDXXnudsWMvYsKEy/B6ffz5z9dUWG7Pngz++Mcx7Nmzh8sum8jxSuQWlYV6oGzdtJ6T +/aJZTyKoiiKotQxS39bRvvO3Sq8p1ogFEVRFEWJmupEeQRFWlL1eC+NGq5sbLh9OHJkxdEYTdNk /vyvq13ngdavX8+UKc+RnZ1DkyaN+ctfbqZbt26HzFfXhdtP4Y6vjz/+hE8++ZySkmKaNEnntttu oXt3Z/tro5xvpN9DXRNuf4bbpnDTvvlmHv/73/vk5eXRsmUL7rjjNjp27FDtcgcK933VZeG2Pdyx FO5vPNxykR6fx/u5t8Zyi8rkvv+WLP1NKrXnsceekOvWrZdDh46Qfr+/yvleeOEl+fTTU6RpmvKJ J56Sb7759lGMMvauvvrPcuPGTZVOi3Qf/vTTz/Ivf7kjonUe6PLLr5I//LBYSinlwoXfyyuuuCrK 6OuGcPsp3PE1d+43cs+eDCmllPPnL5CTJl0dmhZuH0Z6zEb6PdQ14fZnuG0KN2369BmhaXPmfCWv vfaGiJY7ULjvqy4Lt+2RHksH/42HWy7SdR7v595oLFn6mzwwX8gtKpPqFsYRFGlJ1eO9NGq4srGR 7sOZM2dx1ln7R3UMt84D5ebmhn7B9ezZndzcvCgirzvC7adwx9fw4cNo3rwZACed1Jvs7OzQtNoo 5xvp91DXhNuf4bYp3LRx48bSubMzWuWgQQPZvn1HRMsdKNz3VZeF2/ZIj6WD/8bDLRfpOo/3c29N qVsYdcDxXho1XNnYSOTl5bFixUruvfeeqNd51lmjmDr1ef785z/x6qv/OSYfu43k+MrNzeO11/7L OefsH+CoNsr51vS7rYvCbVOk27tu3frQBTWa5fap7PuqLw7e9kiOpcr+xsMtF+nxebyfe2tKtUDU Acd7adQZMz7ggw/e5eOPPyQ1NZUpU56LavnZs79iyJDTK9y7jHSdl102keXLV3LjjbewbduOY/KR rOqOr7FjL2b8+EvZsyeDSy65KPR+uH0Y6TFb0++2Lgq3TZFsr9/v55VX/sNVV02Karl9qvq+6oPK tj2SY6myv/Fwy0V6fB7v596aUglEHbCvNCpwXJZGPbhs7LJlyyNeVkrJrFlzGD16VIX3I13nk08+ w9ixFzB9+nv06tWDp5+ecphbUXdVd3x9/PGHzJkzkwED+nPvvfeH3g+3DyM9Zmvy3dZV4bapuu2V UvLQQ48wePCpFQoXRbOfqvq+6rqqtr26Y6mqv/Fwy0V6fB7v596aUglEHbCvNCpw3JdGPbhsbHWW LVuOYej07NnjsNa5ZMlSLrjgPHRd5+qrJx9SUfRYEMnxpes655xzFlu3bqt0HVWV8w23zurWcSwI t02VTZs69Xni4+OYPPnKw1rnPtV9X3VRVdte3bFU1d94uOUiPT7VubdmVAIRAweXVD3eS6OGKxtb nYM7VlW3zoP3fXp6OqtWrQZg2bJltGrVsha2qG4Jd3wtW7Y81FFw9uw59OjRPTTtcMr5Hrx/a/Ld 1lXhtinctHfeeZddu3Zz9913hh7XrG65g/dnuO+rLgu37dWd/6r6Gw+3XKTH5/F+7q0plUDEgKyk pOrxXBo1XNnYcAoLC1m8+EdGjhwR8ToP3vd//esdvPHGW1x44SV88MF0/vrXu2pno+qQcMfXu+++ zwUXjGPcuEtYvnwld999Z2ja4ZTzPXj/Hu53W5eF26Zw0/773zdYsWIlZ599HiNHns3IkWfz7bcL wy538P4M933VZeG2PdzxGe5vPNxykR6fx/u5t6ZUKWtFURRFUcJSpawVRVEURakVKoFQFEVRFCVq KoFQFEVRFCVqKoFQFEVRFCVqKoFQFEVRFCVqKoFQFEVRFCVqKoFQFEVRFCVqKoFQFEVRFCVqKoFQ lFq2Y8dObr31dkaPPpdx48bz0kuvYJomF100gfff/7BWP2vo0BG8+uprUS1zpGI52p8B8MADD3H3 3fdUOu2uu/7Ggw8+fEQ/X1GOZyqBUJRa9vjjT7Jy5SpGjhxB794nEgwGAUJjGMTCpk2bWLdufej1 kYjlaHxGxc/bzLfffsekSZdXOn3SpMuZP38Bv/++5YjGoSjHKyPWASjKseb337fQtGlTbr/91grv f/TR+zGKCP773zfp0KE93bt3wzCMIxLL0fiMA3311de0aNGiypFYe/XqSdOmTfn667lcf/21RzQW RTkeqRYIRallnTt3Yu/evbz44iv4/f7Q+wfebhg6dASLF//I7bffxahR5/D3v99HUVER//rXvxk1 6hwmTryCxYt/PGQ5gFdffY2hQw8dXAjgwQcf5pxzzmfs2IuZN28+AH/96//x88+/8N57H3DuuRcc ss7i4hIeffQJxowZx5gx43jiiacpKysLzffxx59w/fU3M3Lk2VxxxWSWLFl6yOdW9xnRbG9WVjZ3 3fU3zjrrj1x99bWsWbOm0m1duXI1vXr1BGD69BmMGTOOc845n6eemhKa54QTeoVGW1UUpXapBEJR atmdd95Oy5YtmD79I6666hq2b99R6XxPP/0snTp15KyzRrF48Y9cd92NxMV5uPTSCZSUlDBlynNR f/bYsefz6KP/pkuXzrzwwssATJ58JQCjRo1kypSnDlnm+edfYMGCbxk9ejSjR4/im2/m8dJLr4Sm v/jiK3Tp0onLLptIQUE+Tz31zCHrqO4zotne559/kby8fKZMeYqWLZvzxBNPV7q+jIyM0PDrr7/+ JoMGDeSBB+7j9NMHh+Zp3boVu3fvqWavKYpyONQtDEWpZW3atOaNN17jzTff5t133+exx57gxRcP TQb69j2JG264DoBFi36gUaNGoeGZi4qKmDHjk0rXX1XXgiVLlvKf//yXHTt24vP5Qu937doFgLS0 VDp16njIcj/99AvDhw/j2muvKf/sYn744UfuuOM2AM4443Ruu+3WsHFV9xnRbO/y5Svw+Xzcccfd AGiaqHR9ZWVlJCQkANCtW1fmz/+W+PgEJk26LDRPQkJCqDVFUZTapVogFKUWmaaJaZq4XC7+9Ker ad68GVu3bqt03saNG4f+7XK5aNKkSei12+2uMG8gEAj9e+/evZWu79FHH8ftdvPGG68xduwFEces aaJCh0cp7QqvmzZtWmVc0Yh0e4UQDBs2lJkzP2XmzE/5/PPKE6m4uDi8Xi8Ajz76b6688grmzv0m lHiAk2TEx8cddsyKolRNtUAoSi3Kz8/nuutuYtCgAQghyMzcS9++fWq0zmbNmjJ37jxSU1PJzc1l 4cJFlc4XCAQwDINdu3bx00+/VJjWqFEjfvzxZ1wuF1ddNanCtEGDBjFv3nwaNGgAwLx5CzjzzD+E povKGwAOEe4zonHyyX359tuF9OvXj8aNG7F8+YpKn7Ro3rwZu3fvBuDLL2fRs2cPTjttMN9//31o nl27dtG8efPDjkVRlKqpFghFqUWJiYl07tyJb79dyPz539K//yncddftNVrnbbfdSkpKCm+++Tar V6+t8omCSZOuYP36DTz55DOce+7ZFaZdf/217Nmzh6+/nnvIcjfddD3Dhp3J7NlzmD17DkOH/oEb brg+6jjDfUY0brnlJgYOHMCUKVO5886/8uuvh3baBOjVqxcrVqwC4IsvZvGXv9zBr78u4aabbgjN s3r1Gnr16lWjeBRFqZzILSoLtVVu3bSek2v4a0lRFOVoWL9+PddffzMvvDCVHj26HzJ9zZq13HTT rbz00vN069Y1BhEqyrFj6W/LaN+5W4X3VAuEoij1Urdu3Rgy5AzefPPtSqdPm/Y/hgw5QyUPinKE qBYIRVEURVHCUi0QiqIoiqLUCpVAKIqiKIoSNZVAKIqiKIoSNZVAKIqiKIoSNZVAKIqiKIoSNZVA KIqiKIoSNZVAKIqiKIoSNZVAKIqiKIoSNZVAKIqiKIoSNZVAKIqiKIoSNZVAKIqiKIoSNZVAKIqi KIoSNZVAKIqiKIoSNZVAKIqiKIoSNZVAKIqiKIoSNZVAKIqiKIoSNZVAKIqiKIoSNZVAKIqiKIoS NZVAKIqiKIoSNZVAKIqiKIoSNZVAKIqiKIoSNZVAKIqiKIoSNZVAKIqiKIoSNZVAKIqiKIoSNZVA KIqiKIoSNZVAKIqiKIoSNZVAKIqiKIoSNZVAKIqiKIoSNZVAKIqiKIoSNZVAKIqiKIoSNZVAKIqi KIoSNZVAKIqiKIoSNZVAKIqiKIoSNZVAKIqiKIoSNZVAKIqiKIoSNZVAKIqiKIoSNePAF3uzclj6 27JYxQJA5t4shpxxWkxjUBSlZr5b+D3NmqbHOgxFOeZYtox1CCEVEghf0ATDHatYHEI1iihKvSe0 2J9LFOVYFPDTv1/fw1r0lyW/1WjZg6mrtaIoiqIoUVMJhKIoiqIoUVMJhKIoiqIoUVMJhKIoiqIo UTOqnyW80tJS9mZmkJ+fT8AfAMDtcZOamkrTZs1JTEyscZCKohx5efn5bNy4iV2791Ba5gUgMSGe Vi1b0KVLZ9JSU2McoaLUP8fyNfKwEwjbttn6++9kZGQcMs1b5sVb5mXP7j00b96c9h07omm139gx ccKEqOZ/9733Il5vZfPOmDEDgAsvvBCAFStW8MP333PDjTdGFYei1CWWZfHzz7+ybsPGQ6YVFgYp LCxizdr1dO/ahQEDTkHX9VqP4YF774lq/vsfeiTi9VY273fz5wEw5MxhAGzetJFVK5YzZtzFUcWh KFWpC9fII+2wEgjbtlmzejWFBQXVzpuRkUGZ10vPXr3q5Q7aZ8aMGfzy88+h1506deKlF1/kjjvu iGFUilIzlmXx1dx5ZGRkVjvvug0bKSgqYtSIYUcogGleAAAQzklEQVQkiThavps/j7VrVoVet2zd mk8/+pBLLr0ihlEpx5Lj5Rp5WAnE1t9/D+0YXdexLKvS+fZNKywoYOuWLXTs1OnwI61CNK0Kh2tf 8vD3e+8F4N8PPcSc2bO5++676dyly2Gv90C2lNx59z0sWbqM7t268tC/7qNJ48ZhlznjzFHM+nwG SUlJtRLDsaykpISzz7uQhfO/OmTaZ198yRtvTaNlixasWr3muNqnP//8ayh5MAwD0zQrnW/ftIyM TH7+ZQmnDhpQ67FE06pwuPYlD1dM/hMAb7/+H37+8QcmXH4lrdu0Oez1VuZPf7qWlJQUbNsmLS2N 888/jxNPPKHC9N69e3PTTTeE3svMzOQf/7ifV199mWeeeZZ169bRvn07brjheho2bFir8QGUlZVx 66238Z//vFLr665Ln1md2o4p1tfIX35dAkD/U/rV6rwHizrdKS0tDTXJ6LrOKQMHkpaWdsh8aWlp nDJwYOiXSsaePZSWlkYdYKwdmDykpKSQkpLC3++9l7/dc0+tJQ8AmhA8/cSjAPz9b3dVmzxE48ef fiEYDEY97Xjx1tv/46nHH+H5Z5+KdSjA0ftO8vLzQ7ctDMNgwviLaN261SHztW7dignjL8IwnN8b 69ZvIC8//4jHV9sOTB4SExNJTEzkisl/4rIrJ9d68rDPXXfdwdNPP8nYsWN4/fU32LRpU4Xp+fn5 rFmz9pDlhBDcfvtfAJg8+aojkjzUlG3b/OMf9+H1emMdSp0S62vkL78u4Zlnn49qmWeefT6USEQj 6gRib+b++zmWZbFx3Tq6duteYQelpaXRtVt3Nq5bVyHz2ptZfTNpXTFxwgQmTphQIXnYJyUlhY4d O8YwushZlsUzU5/H7/dHNe14kpuXR9P0JgghYh3KUf1ONm7cfzEzTZNvv1vE0CFnVEgiWrduxdAh Z/Dtd4sqtE5s3Lj5iMdXWx649x4euPeeCsnDPomJibRoeWjSVJuEEPTs2YNhw85kzpyKLWDnn38e 06d/hG3bRzSGI0HTNB588F/Ex8fHOpQ6JZbXyH3Jw2233hRxi0L/U/px2603HVYSEfUtjPyDfnnk 5eWxYb2zgzasXwcQ+ndeXt5By+YB9ePCG+mtkSPt7PMu5NIJF/PpZzOxLIvr/nw1I0cMO2S+/Px8 Hnn8abZt307DBg2447Zb6NqlMw898jiZmXu562/3Eh8fz9NP7G8mrmxaVevZF8uVV1zKRzM+wR8I cs3kSWRkZPL1N/OwLbtCbGefdyHjL76Qzz7/koYNG3D/vffQpk1rAD6YPoMZH3+KaVqceupA7rzt lrD74MvZX/He+x/i9flwu91cc9Ukhp35h2r3z44dO/+/vbMPi6paF/jPAfxCnjA7gopHU0EgUUJN HSRIkA/vvfkBAqk3T/dR6pplCogc6eOYHD+4mnrMijqYlkkaKtY5Pd34GL60FAifTmp5OtoREVSU r+Bozezzx7jHmWEYZgYMyPX7h2Gvvd/1rrVnz3r3Wu/7LtalbuTGjTpmhswwKXvzlm1IkkTimhTe 2LnNoKy65gobNv0flZWXGDFiOMmrE3BwcCBm4WIOHdiHo6MjDQ0NzI6MZe/udIa7ufFjczNR0QvZ //67ODvfp5M1JyqWmPmRZB7IIjsrs802WXtPOkLlpSqD/y9erCS/oJDHAh8lv6AQQPf54sVKo2sv AZM7rMMvgaVLI3cbb28vcnPzDI65urrg7u5Ofn4+wcGtn2tzFBeX8Nlnn3Hz5i0cHByYM+dxJk/W 3pMVK1YSHh6GSlWARqMhMnIeU6dql52qq6t5++0/09DQoDumT2NjI8nJa0lL20S/fv1oavqR+PgE 1q17BRcXF1pa/kVSUhKpqetZtSqB7dtfo3///h2qU+bzz3PIzc1DrVYzYcJ4Fi1aqGtPaOhMVKoC nJyciItbgqurKwANDQ28++4eqqou4+Q0gEWLFjJixIh2yyzVyVq6aoy0xXiQ0TcirLneagNCDkPR R+4gT++HAImzp0+36pi2ru2uyD4TvXr1Ii4ujsCgoC7Ro6mpCUmSOJj5HqVl5aRuTDNpQOx4/U3+ IyKMwEen81XFKTalbSXj7Td4OSWZ3DwVaRvXt1rXN1XWlhxZl1u3bnFg/3ucPnOWZctf4H+fXspH me9z4mQpGzZv0enW1NSEs7MzWQf28VHWYXbueovNG9cDkPHue7zz1k7chg2jurqm3T7wHe/DdOVU 7rvvPr7/x3lWJiTpDAhz/bPtT7sIDw0hKnIuHx06YlL26vgX+OQvn5J2Wzd9tu94nUcD/ImcO5uD WYfZ8fobvPrKi/g97EthUQkR4aEUFR9j8kQ/So59QWx0FAWFxfj5+RoYDwB1N+rQaDQcPviB2TZZ e086ghyqqY9sRMwICgQk8lStjYe2ru2uyD4TvXr14vG5kfj6TewSPfr27dtqul+j0TBnzuOkpm5g yhTrBjEPD3d8fScwYMAAKisr2bp1m86AaG5uRpIkNm3awOnTZ8jI2K0bJPfvz0SpnEpwcHArgwbA yckJT09PvvrqK5RKJRUVFXh7e1NRcYqwsFDKy8vx9PTEycnJ4LqO1CmTnX2UF19cy+DBg6mtrTWQ 7eTkRFraJnJzc/nww4OsWPEcAJmZB5g+3R8/Pz/Onv2WPXv28tJLL7ZbZqlO1tIVY+TZs9+yYfMW klfH2+TLAHeMiA2bt7Dh1Vfw9Bzb7jUdzgNhiAR0/TSwPnJIprUzCvL5NTU1pK7XDi6yEVGgUvHt d9+xdOnSX2TaOyw0BICxHh7U1rb+0gGcLC3n1Kmv2bFTO7DY6s3bnhxZFy/PsWgkiZDgx27/79lK twD/aQAEBgaQsed93fH/nBVOykvrWLQgVmcImKOxqYmt23dy4YcfQIK6unqTOhn3z5kzZ0lerY2S CQyYrmuTpZz6+m+sWqn9kQoKDGDP3n0ARITPJPvoX4gID0VVWMQzcUvYsXMXsdFRfJ6TR+Tc2a1k aSSJ0JBgXX+21yZ9OuveWkf3e5blkExrZxTk86/X1rJ39zsAOiOioryMf/5wgf+aM++uP8t1dfUm Y/4dHR0JCQnmyJFsZs4MsVhec3MLH3ywn6qqy0iSRGNjo0G5Uql9/kaOHEF9/Z3v1/nz5/nd7xYD 4Of3MJmZH7aS7e8/jYKCQpRKJWVlZURGziMz80PCwkL58ssvmTHD9IxeR+oECAiYzq5dbzJrVrjO GJLx9Z0AwMSJEzl69BPd8TNnTnPu3Dn279fK1H8+zJVZqlPn0v2eq45gtQHRu09vWozePuT1nLOn tc5AbU3P9O7T83bnc3FxYW1Kis6IAK1j5QMPPEB6ejpxcXF3/YenX9++AJitRpLY8Voabm7DOlZZ O3Lu6KJVps/te2pKN83tbWcljWRQ/tyzz3Du79/z1tsZ5OUXsCH1D2ZVemXdH1m0IIZZEeupq6tn TlRsGzqZuPj2MVvCDhX6AiWQ0LZHOXUKW7f9iarLl/nxx2ZGj3oQtVrDxcpKzl+4wNQppqf2+/Xr a3GbDOise2uEY/9+1NcbOmvKPg95KvNLGI79e9669/2DBvHkU0t0RgSAKi8HZ+eBfHzk0F03Ir75 5hvc3U172QcFBfLqq6n4+LQ/IyeTnp5OREQEzz+vpLGxiYSERIPy3r3b/r2V26lQmH4uxo8fz759 H3D16jVaWv6Fm5sbGo1ETU0NVVVV+PiMM3ldR+oEiImJ5uLFi2RlHebkyVKWL7+TY0eStM+fxmg7 a0nSOqsOHtx6+3hzZZbqZC1dMUZ6eo4leXW8zUsYcGcJJHl1vEWzD2CDE+VAo2x0csfInaG/3mPs eTpwYGtP1LuF7ARp/NkWZCMiKyuLrKws1qakkLRmDdeuXiU9Pb2zVO4Qkyb5cfDQEdRqNWq1mgs/ /FNX1r9/vzbj/I3LzMmxloKiYgDyCwp5yMsLgJs3b3LpUhXuY0bz7DNLOfX13wAoLCohdNZsCotL WslpamrC3X0MCoWCT/76qcX1e3mNpbjkOADFx45brb+v73gKCrVtUBUWMd5HG4Jnb2/PjKBA3snY g//tN65pUx/hz7v3EvxYkC5awRzm2nQ374k+bsOGGvwvGw+ywaDvE2EcneE2rHONGXPITpDGn21B NiJUeTmo8nJ48qklLFz8FHU3bvDxkUOdpbIBGo2G0tJSiotLiIiIMHmOQqEgOno+hw+bXmozRXNz C7/97XAUCgXFxcUWXzdy5INUVFQA2mR4prCzs2PSpElkZ2fr3vx9fMaRnX2UyZOtTyZmSZ0//fQT V65cYfjw4cyfH8W5c4aOumVl5bf/ljFq1CjdcW9vL3JyctFoNGg0GqqqLltUZolOttBVY2RHnCFt 9Z+w2oBwcR2i+2xnZ4eHV2tLSu4gDy8vgy+a7PTyS6C/bGHLEoYxshGxNiUFFxcX+vTpQ0JiIrXX rnWGumgkifjVvwcgdWMaV62U+8Jzz1JbW8vsyFgenxdNjt6a3oLYaFYmJhO9oHWiHOMyc3Kspbq6 hnnzF/DZ/+ewfNnTAPysVrP25XVERi9kTcrLPPuMNh5fkqQ2PdHjlv4P8YnJxCxcTO/evXF1Mf02 Yczzy5fx8Sd/JSp2Edev37A6ZeyK5csoOfYFkdELKS45zorn7sTrR4SHkpdfQGCAPwDKaVNRFRQR ER5qkWxzbbqb90QfDz1HTHt7e4ICA1rNNshGRFBggIFh1BlOnJaiv2xhyxKGMbIR8eRTS7h/0CAc HBx44r8XW5T0x1rS0rawalUCubn5LF++jJEjR7R5rpeXp+5NWZIktm3bDkBGxm7qTOg2b95cXntt O8nJa7G3t2fQoEEW6RQbG0NhYRFJSWuor69vM4rC31/JyZOl+Pk9DMCECeMpKytHqVRaVI+1df78 s5pdu94kMTGJnTtfZ/78KIPy69evk5iYxPHjx4mJma87/sQTsdTX1xMfn8DKlfGcOHHCojJL+8Fa unKMtMWI6IjzZa/ahmbdfJBKpWLEiPbjob8/d84gzrW9JBkAQ4YOtShJRnVVFYEBln1Bzc0qyAZD W2mpbZVrri7BHR6dEcanHx/q0Xne7wWOHfvCIBdEe4mkQOv/0l4iqYKiY7gOHWr2HH3MzSrIBkNb aaltlWuuLkH3YunSp9mxY1uPCRm9m2Ok+tZNHpnkZ/actpJDnSgtb3WtpYmkTpSWM2asl8Exm5wo Hxw9muaWFurr6trsGEBX5uzszIN6U06dhSUDty2DuzAIOgd5zVLQfZkyZTJ1DQ1cvlzdpvEA6MqG DnFlyiO2eXmbw5KB25bBXRgEvx560u9JV4+R1swk2Bq1ATZu561QKHho3DiGWPCGMWToULzH+fS4 HN8Cwb2AnZ0dYTOD8bLAacrLcyyhM0N69D4YAsEvwb0yRtocxqlQKBg9ZgyuQ4ZQU13NjRvXjbYq vR8XV1cxhX2PYmrPCUH3xM7ODuW0KXh6evDdd3+n8tIlo+28h+HhMUZs5y3oMrrTvhmWci+MkR3O A+Ho6Mio0aPpKRkmBQKBae4fOPB2CGrPyDApEPQEfs1jZM+bMxEIBAKBQNDlCANCIBAIBAKB1QgD QiAQCAQCgdV0PwPCzo5repuoCASCnsW1a9dARGoIBL96DBJJnT//j67UBdCmfb1y9Sqo1Qww2u1N IBB0b5oaG+llb8dvHvhNjwxLEwi6O+pbN7usbuNEUgYGhEAgEAgEAoEliFcEgUAgEAgEViMMCIFA IBAIBFbzb/TGvwfx+kn6AAAAAElFTkSuQmCC "
       preserveAspectRatio="none"
       height="366"
       width="528" />
    <text
       xml:space="preserve"
       style="font-style:normal;font-weight:normal;font-size:40px;line-height:1000%;font-family:Sans;letter-spacing:0px;word-spacing:0px;fill:#000000;fill-opacity:1;stroke:none;stroke-width:1px;stroke-linecap:butt;stroke-linejoin:miter;stroke-opacity:1"
       x="-399.01691"
       y="695.78101"
       id="text8705-7-3-5"
       sodipodi:linespacing="1000%"
       inkscape:export-xdpi="90"
       inkscape:export-ydpi="90"><tspan
         sodipodi:role="line"
         id="tspan8707-5-6-3"
         x="-399.01691"
         y="695.78101"
         style="font-style:normal;font-variant:normal;font-weight:bold;font-stretch:normal;font-size:20px;font-family:Sans;-inkscape-font-specification:'Sans Bold';fill:#ff0000;fill-opacity:1">xaxis</tspan></text>
    <text
       xml:space="preserve"
       style="font-style:normal;font-weight:normal;font-size:40px;line-height:1000%;font-family:Sans;letter-spacing:0px;word-spacing:0px;fill:#000000;fill-opacity:1;stroke:none;stroke-width:1px;stroke-linecap:butt;stroke-linejoin:miter;stroke-opacity:1"
       x="-648.52429"
       y="578.2865"
       id="text8705-7-3-5-5"
       sodipodi:linespacing="1000%"
       inkscape:export-xdpi="90"
       inkscape:export-ydpi="90"><tspan
         sodipodi:role="line"
         id="tspan8707-5-6-3-6"
         x="-648.52429"
         y="578.2865"
         style="font-style:normal;font-variant:normal;font-weight:bold;font-stretch:normal;font-size:20px;font-family:Sans;-inkscape-font-specification:'Sans Bold';fill:#ff0000;fill-opacity:1">yaxis</tspan></text>
    <text
       xml:space="preserve"
       style="font-style:normal;font-weight:normal;font-size:40px;line-height:1000%;font-family:Sans;letter-spacing:0px;word-spacing:0px;fill:#000000;fill-opacity:1;stroke:none;stroke-width:1px;stroke-linecap:butt;stroke-linejoin:miter;stroke-opacity:1"
       x="-380.37283"
       y="762.7301"
       id="text8705-7-3-2"
       sodipodi:linespacing="1000%"
       inkscape:export-xdpi="90"
       inkscape:export-ydpi="90"><tspan
         sodipodi:role="line"
         id="tspan8707-5-6-9"
         x="-380.37283"
         y="762.7301"
         style="font-style:normal;font-variant:normal;font-weight:bold;font-stretch:normal;font-size:20px;font-family:Sans;-inkscape-font-specification:'Sans Bold';fill:#0000ff;fill-opacity:1">Close button</tspan></text>
    <text
       xml:space="preserve"
       style="font-style:normal;font-weight:normal;font-size:40px;line-height:1000%;font-family:Sans;letter-spacing:0px;word-spacing:0px;fill:#000000;fill-opacity:1;stroke:none;stroke-width:1px;stroke-linecap:butt;stroke-linejoin:miter;stroke-opacity:1"
       x="-609.4613"
       y="680.10352"
       id="text8705-7-3-2-1"
       sodipodi:linespacing="1000%"
       inkscape:export-xdpi="90"
       inkscape:export-ydpi="90"><tspan
         sodipodi:role="line"
         x="-609.4613"
         y="680.10352"
         style="font-style:normal;font-variant:normal;font-weight:bold;font-stretch:normal;font-size:20px;font-family:Sans;-inkscape-font-specification:'Sans Bold';fill:#0000ff;fill-opacity:1"
         id="tspan5770">Detach and </tspan></text>
    <text
       xml:space="preserve"
       style="font-style:normal;font-weight:normal;font-size:40px;line-height:1000%;font-family:Sans;letter-spacing:0px;word-spacing:0px;fill:#000000;fill-opacity:1;stroke:none;stroke-width:1px;stroke-linecap:butt;stroke-linejoin:miter;stroke-opacity:1"
       x="-631.17664"
       y="702.13739"
       id="text8705-7-3-2-1-7"
       sodipodi:linespacing="1000%"
       inkscape:export-xdpi="90"
       inkscape:export-ydpi="90"><tspan
         sodipodi:role="line"
         x="-631.17664"
         y="702.13739"
         style="font-style:normal;font-variant:normal;font-weight:bold;font-stretch:normal;font-size:20px;font-family:Sans;-inkscape-font-specification:'Sans Bold';fill:#0000ff;fill-opacity:1"
         id="tspan5770-0">open in a window</tspan></text>
    <rect
       style="opacity:1;fill:none;fill-opacity:1;fill-rule:evenodd;stroke:#0000ff;stroke-width:2;stroke-linecap:round;stroke-linejoin:bevel;stroke-miterlimit:4;stroke-dasharray:6,6;stroke-dashoffset:0;stroke-opacity:1"
       id="rect5796"
       width="22.292679"
       height="22.292677"
       x="-594.62091"
       y="713.67352" />
    <rect
       style="opacity:1;fill:none;fill-opacity:1;fill-rule:evenodd;stroke:#0000ff;stroke-width:2;stroke-linecap:round;stroke-linejoin:bevel;stroke-miterlimit:4;stroke-dasharray:6, 6;stroke-dashoffset:0;stroke-opacity:1"
       id="rect5796-9"
       width="22.292679"
       height="22.292677"
       x="-384.02771"
       y="714.09723" />
  </g>
</svg>
